[0]=OPNAVINST 5400.45
[1]=STANDARD NAVY DISTRIBUTION LIST
[2]=ADMINISTRATIVE ORGANIZATION OF THE OPERATING FORCES OF
[3]=THE U.S. NAVY
[4]=1 Apr 2020
[5]=ECHELON CHAIN OF COMMAND
[6]=1 CHIEF OF NAVAL OPERATIONS (00011)
[7]=2 CONSTITUTION (U.S. SHIP OF STATE) (REPORTS TO CNO THROUGH THE DIRECTOR, NAVY STAFF) (01024)
[8]=2 COMMANDER, U.S. NAVAL FORCES EUROPE, COMMANDER,U.S. NAVAL FORCES AFRICA (COMUSNAVEUR, COMUSNAVAF) (00061)
[9]=2 (COMUSNAVEUR, COMUSNAVAF DETACHMENT (DET) MARITIME ASHORE SUPPORT TEAM (MAST) (47057)
[10]=3 COMMANDER, U.S. SIXTH FLEET (3818A)
[11]=3 (COMSIXTHFLT MCM DET ROTA) (40366)
[12]=4 COMMANDER, TASK FORCE (CTF) 67 (30191)
[13]=(The Commander is dual hatted as Commander, Fleet
[14]=Air Sigonella (UIC 67061) under COMNAVAIRLANT and
[15]=COMUSFLTFORCOM.)
[16]=5 TOC SIGONELLA (55354)
[17]=4 CTF 68 (40366)
[18]=4 CTF 69 (58744)
[19]=4 CTF 63 (40365)
[20]=4 CTF 64 (3245B)
[21]=4 CTF 65 (Dual hat with CDS 60 under CFFC)(3479B)
[22]=2 OPERATIONAL TEST AND EVALUATION FORCE (57023)
[23]=2 NAVY RESERVE FORCE (00072)
[24]=3 NAVY AIR FORCE RESERVE (00071)
[25]=4 MARITIME SUPPORT WING (00082)
[26]=5 PATROL SQUADRON (VP) 62 (09162)
[27]=5 VP 69 (09989)
[28]=5 HELICOPTER SEA COMBAT SQUADRON (HSC) 85(09061) (09061)
[29]=5 HELICOPTER MARITIME STRIKE SQUADRON (HSM) 60 (3218A)
[30]=4 FLEET LOGISTICS SUPPORT WING (FLTLOGSUPPWING) (53831)
[31]=4 (FLTLOGSUPPWING EXECUTIVE TRANSPORT DET (ETD) PACIFIC) (40425)
[32]=(FLTLOGSUPPWING ETD SIGONELLA (40420)
[33]=5 FLEET LOGISTICS SUPPORT SQUADRON (VR) 1(42884)
[34]=5 VR 51 (39501)
[35]=5 VR 53 (55617)
[36]=5 VR 54 (52895)
[37]=5 VR 55 (53855)
[38]=5 VR 56 (53856)
[39]=5 VR 57 (53910)
[40]=5 VR 58 (53911)
[41]=5 VR 59 (53921)
[42]=5 VR 61 (08988)
[43]=5 VR 62 (09324)
[44]=5 VR 64 (09172)
[45]=4 TACTICAL SUPPORT WING (09393)
[46]=5 STRIKE FIGHTER SQUADRON (VFA) 204 (09032)
[47]=5 ELECTRONIC ATTACK SQUADRON (VAQ) 209 (53870)
[48]=5 FIGHTER SQUADRON COMPOSITE (VFC) 111 (52923)
[49]=5 VFC 13 (52995)
[50]=5 VFC 12 (52994)
[51]=3 NAVY RESERVE FORCES COMMAND (3447B)
[52]=2 COMMANDER U.S. NAVAL FORCES CENTRAL COMMAND (COMUSNAVCENT) (57007)
[53]=3 COMMANDER, U.S. FIFTH FLEET (57045)
[54]=4 COMDESRON 50 (45193)
[55]=4 COMLOGFORNAVCENT (09346)
[56]=4 PATROL AND RECONNAISSANCE WING 57/CTF 57 (44468)
[57]=4 (TACTICAL OPERATIONS CENTER BAHRAIN) (55618)
[58]=2 COMMANDER, U.S. NAVAL FORCES SOUTHERN COMMAND (COMNAVSO) (57061)
[59]=2 (COOPERATIVE SECURITY LOCATION COMALAPA EL SALVADOR) (3146B)
[60]=(COMNAVSO DET INTER-AMERICAN NAVAL TELECOMMUNICATIONS NETWORK) (32112)
[61]=3 COMDESRON 40 (52811)
[62]=3 COMMANDER, U.S. FOURTH FLEET (64041)
[63]=2 COMMANDER, NAVAL SPECIAL WARFARE COMMAND (COMNAVSPECWARCOM) (00074)
[64]=2 (COMNAVSPECWARCOM DET ANNAPOLIS) (39565)
[65]=3 COMNAVSPECWAR DEVELOPMENT GROUP DAM NECK (47898)
[66]=4 NAVAL SPECIAL WARFARE TACTICAL DEVELOPMENT AND EVALUATION SQUADRON ONE (40458)
[67]=4 NAVAL SPECIAL WARFARE TACTICAL DEVELOPMENT AND EVALUATION SQUADRON TWO (40459)
[68]=4 NAVAL SPECIAL WARFARE TACTICAL DEVELOPMENT AND EVALUATION SQUADRON THREE (40460)
[69]=4 NAVAL SPECIAL WARFARE TACTICAL DEVELOPMENT AND EVALUATION SQUADRON FOUR (40461)
[70]=4 NAVAL SPECIAL WARFARE TACTICAL DEVELOPMENT AND EVALUATION SQUADRON FIVE (40298)
[71]=4 EXPLOSIVE ORDNANCE DISPOSAL TACTICAL DEVELOPMENT AND EVALUATION SQUADRON (72301)
[72]=3 NAVAL SPECIAL WARFARE GROUP (NAVSPECWARGRU) ONE (57100)
[73]=3 (NAVSPECWARGRU ONE DET GUAM (46987)
[74]=(NAVSPECWARGRU ONE DET TRAINING (TRN) (39589)
[75]=(NAVSPECWARGRU ONE DET BAHRAIN7-31-2021) (39966)
[76]=4 SEAL TEAM ONE (55777)
[77]=4 SEAL TEAM THREE (44884)
[78]=4 SEAL TEAM FIVE (08971)
[79]=4 SEAL TEAM SEVEN (39591)
[80]=4 NAVAL SPECIAL WARFARE UNIT (NAVSPECWARUNIT)THREE (DISEST EFF 31 Jul 2021) (39966)
[81]=4 NAVSPECWARGRU ONE LOGISTICS AND SUPPORT UNIT (LOGSUPPU) (39585)
[82]=3 NAVAL SPECIAL WARFARE GROUP THREE (55446)
[83]=3 (NAVSPECWARGRU THREE DET TRN) (34123)
[84]=4 NAVSPECWARGRU THREE LOGSUPPU (55457)
[85]=4 SEAL DELIVERY VEHICLE (SDV) TEAM ONE (08973)
[86]=4 SDV TEAM TWO (08842)
[87]=3 NAVAL SPECIAL WARFARE GROUP TWO (0031A)
[88]=3 (NAVSPECWARGRU TWO DET TRN) (39590)
[89]=3 (NAVSPECWARGRU TWO DET GERMANY) (34122)
[90]=4 SEAL TEAM TWO (55778)
[91]=4 SEAL TEAM FOUR (08943)
[92]=4 SEAL TEAM SIX (53999)
[93]=4 SEAL TEAM EIGHT (46985)
[94]=4 SEAL TEAM TEN (39592)
[95]=4 NAVSPECWARGRU TWO LOGSUPPU (39587)
[96]=4 NAVSPECWARUNIT TWO (DISEST EFF 31 Jul 2020) (53991)
[97]=3 NAVAL SPECIAL WARFARE GROUP FOUR (52738)
[98]=4 SPECIAL BOAT (SPECBOAT) TEAM TWELVE (42221)
[99]=4 SPECBOAT TEAM TWENTY (44392)
[100]=4 (SPECBOAT TEAM 20 DET CARIBBEAN) (68975)
[101]=4 SPECBOAT TEAM TWENTY TWO (32219)
[102]=3 NAVSPECWARGRU TEN (58063)
[103]=4 SPECIAL RECONNAISSANCE TEAM (SPECRECON TEAM) ONE (48569)
[104]=4 SPECRECON TEAM TWO (49660)
[105]=3 NAVSPECWARGRU ELEVEN (39605)
[106]=4 SEAL TEAM SEVENTEEN (39943)
[107]=4 SEAL TEAM EIGHTEEN (39944)
[108]=2 COMMANDER, NAVAL SEA SYSTEMS COMMAND ** (00024)
[109]=3 USS GETTYSBURG (CG 64) (21624)
[110]=3 USS CHOSIN (CG 65) (21625)
[111]=3 USS VICKSBURG (CG 69) (21684)
[112]=3 USS CAPE ST GEORGE (CG 71) (21828)
[113]=3 USS ANZIO (CG 68) (21658)
[114]=3 HUE CITY (CG 66) (21656)
[115]=3 COMMANDER, NAVY REGIONAL MAINTENANCE ** (58400)
[116]=CENTER
[117]=4 COMMANDING OFFICER, MID-ATLANTIC REGIONAL MAINTENANCE CENTER** (50054)
[118]=5 DYNAMIC (AFDL-6) (14806)
[119]=2 COMMANDER, U.S. FLEET CYBER COMMAND (00055)
[120]=3 COMMANDER, U.S. TENTH FLEET (3822A)
[121]=2 CHIEF, BUREAU OF MEDICINE AND SURGERY ** (00018)
[122]=3 EXPEDITIONARY MEDICAL FACILITY (EXMEDFAC) DALLAS ONE (84023)
[123]=3 EXMEDFAC GREAT LAKES ONE (84022)
[124]=3 EXMEDFAC BETHESDA (50480)
[125]=3 EXMEDFAC CAMP PENDLETON (50481)
[126]=2 COMMANDER, U.S. FLEET FORCES COMMAND (COMUSFLTFORCOM) (00060)
[127]=3 COMCARSTRKGRU FOUR (09577)
[128]=4 EXPEDITIONARY WARFARE TRAINING GROUP ATLANTIC (63021)
[129]=4 TACTICAL TRAINING GROUP ATLANTIC (53989)
[130]=3 COMMANDER, U. S. SECOND FLEET (08961)
[131]=4 COMMANDER, CARRIER STRIKE GROUP (COMCARSTRKGRU)
[132]=TWO (09576)#
[133]=4 COMCARSTRKGRU EIGHT (53889)#
[134]=4 COMCARSTRKGRU TEN (55771)#
[135]=4 COMCARSTRKGRU TWELVE (0107A)#
[136]=4 COMMANDER EXPEDITIONARY STRIKE GROUP (COMEXSTRKGRU)
[137]=TWO (55333)#
[138]=#(CCSGs 2, 8, 10, 12 and ESG-2 are designated as Echelon 4 Commands with COMSECONDFLT as the operational Commander, Immediate Superior in Command, reporting senior and first Flag Officer.
[139]=3 COMMANDER, STANDING NAVY COMBAT ELEMENT (08967)
[140]=#(COMUSFLTFORCOM/COMMANDER, U.S.PACIFIC FLEET (COMPACFLT) established a support relationship between the COMCARSTRKGRU/COMEXSTRKGRU commander (supported commander) and the type commander (TYCOM) (supporting commander). TYCOMs provide administrative command (ADCON) support for units assigned operational command (OPCON) to a COMCARSTRKGRU/COMEXSTRKGRU. TYCOMS and COMCARSTRKGRU/COMEXSTRKGRU commanders work integrated solutions to achieve unit readiness to meet COMCARSTRKGRU/COMEXSTRKGRU mission requirements.)
[141]=3 COMUSFLTFORCOM MARITIME HOMELAND DEFENSE (MHLD) COMMANDER, ATLANTIC AREA (45550)
[142]=4 COMUSFLTFORCOM MHLD DISTRICT (DIST) ONE (82241)
[143]=4 COMUSFLTFORCOM MHLD DIST FIVE (82244)
[144]=4 COMUSFLTFORCOM MHLD DIST SEVEN (82246)
[145]=4 COMUSFLTFORCOM MHLD DIST EIGHT (82247)
[146]=4 COMUSFLTFORCOM MHLD DIST NINE (82248)
[147]=3 COMMANDER, NAVAL AIR FORCE, ATLANTIC (AIRLANT) (57012)
[148]=4 EISENHOWER (CVN 69) (03369)
[149]=4 HARRY S TRUMAN (CVN 75) (21853)
[150]=4 GEORGE H W BUSH (CVN 77) (23170)
[151]=4 GERALD R FORD (CVN 78) (23173)
[152]=4 COMMANDER, CARRIER AIR WING (COMCARAIRWING) ONE (09732)
[153]=4 COMCARAIRWING THREE (09731)
[154]=4 COMCARAIRWING SEVEN (09736)
[155]=4 COMCARAIRWING EIGHT (09748)
[156]=4 COMMANDER, STRIKE FIGHTER WING ATLANTIC (COMSTRKFIGHTWINGLANT) (09103)
[157]=4 (COMSTRKFIGHTWINGLANT DETACHMENT NAVAL AVIATION MAINTENANCE CENTER OF EXCELLENCE (NAMCE))(4779A)
[158]=5 STRIKE FIGHTER WEAPONS SCHOOL ATLANTIC (47084)
[159]=5 VFA 11 (09560)
[160]=5 VFA 31 (09473)
[161]=5 VFA 32 (09053)
[162]=5 VFA 34 (09070)
[163]=5 VFA 37 (09478)
[164]=5 VFA 81 (09221)
[165]=5 VFA 83 (09223)
[166]=5 VFA 87 (63922)
[167]=5 VFA 103 (09718)
[168]=5 VFA 105 (65183)
[169]=5 VFA 106 (09679)
[170]=6 VFA 106 SQUADRON AUGMENT UNIT (SAU) (47570)
[171]=5 VFA 131 (63934)
[172]=5 VFA 143 (09281)
[173]=5 VFA 211 (09086)
[174]=5 VFA 213 (09934)
[175]=4 PATROL AND RECONNAISSANCE GROUP (PATRECONGRU) (39555)
[176]=5 VP 30 (09047)
[177]=5 PATRECON WING ONE ONE (09461)
[178]=5 (PATRECONWING ONE ONE DET FLEET SUPPORT UNIT FIVE) (4354A)
[179]=6 FLEET SUPPORT UNIT ONE (3248B)
[180]=6 MOBILE TOC (MTOC) THREE (55620)
[181]=6 VP 5 (09630)
[182]=6 VP 8 (09661)
[183]=6 VP 10 (09639)
[184]=6 VP 16 (09229)
[185]=6 VP 26 (09610)
[186]=6 VP 45 (09665)
[187]=6 VPU 2 (09244)
[188]=6 (VPU 2 DET KANEOHE (3825A)
[189]=6 VUP 19 (50470)
[190]=6 (VUP 19 DET MUGU) (50471)
[191]=6 (VUP 19 LRE DET 5) (50471)
[192]=(VUP 19 LRE DET 7) (50570)
[193]=6 MTOC ONE (55619)
[194]=6 MTOC FIVE (3695A)
[195]=6 MTOC SEVEN (55637)
[196]=6 MTOC NINE (55352)
[197]=6 MTOC ELEVEN (55353)
[198]=6 TOC JACKSONVILLE (35380)
[199]=4 HELICOPTER MARITIME STRIKE WING ATLANTIC (HELMARSTRKWINGLANT) (55212)
[200]=5 HELICOPTER MARITIME STRIKE WEAPONS SCHOOL ATLANTIC (32417)
[201]=5 HELICOPTER MARITIME STRIKE SQUADRON (HSM) 40(53912)
[202]=5 (HSM 40 DET AIRLANT SEARCH AND RESCUS EVAL UNIT) (48905)
[203]=5 HSM 72 (55145)
[204]=5 HSM 74 (55147)
[205]=5 HSM 46 (55149)
[206]=5 HSM 48 (55151)
[207]=5 HSM 70 (09884)
[208]=4 HELICOPTER SEA COMBAT WING ATLANTIC (HELSEACOMBATWINGLANT) (44890)
[209]=5 HELICOPTER SEA COMBAT WEAPONS SCHOOL ATLANTIC (48097)
[210]=5 HELICOPTER SEA COMBAT SQUADRON (HSC) 11 (09954)
[211]=5 HSC 5 (09488)
[212]=5 HSC 7 (09988)
[213]=5 HSC 2 (09212)
[214]=5 HSC 9 (09163)
[215]=5 HSC 22 (09846)
[216]=5 HSC 26 (0381A)
[217]=5 HSC 28 (55218)
[218]=5 HELICOPTER MINE COUNTERMEASURES SQUADRON (HM) 14 (53827)
[219]=5 HM 15 (55201)
[220]=5 HM 12 (09206)
[221]=4 AIR TEST AND EVALUATION SQUADRON (VX) ONE (55600)
[222]=4 COMFAIRSIG (67061)
[223]=(The Commander is dual hatted as CTF 67 (UIC 30191)
[224]=under Commander, U. S. Sixth Fleet and COMUSNAVEUR/NAVAF.) (COMFAIRSIG DET ASD) (67022)
[225]=(COMFAIRSIG DET AIMD) (44330)
[226]=4 FLEET AREA CONTROL AND SURVEILLANCE FACILITY (FACSFAC) JACKSONVILLE (53895)
[227]=4 FACSFAC VIRGINIA CAPES OCEANA VA (42239)
[228]=4 SURFACE NUCLEAR PROPULSION MOBILE TRAINING TEAM NORFOLK (47301)
[229]=4 LANDING SIGNALS OFFICER SCHOOL (68788)
[230]=3 COMMANDER, NAVAL SURFACE FORCE, ATLANTIC (CNSL) (53825)
[231]=3 (CNSL FORWARD DEPLOYED NAVAL FORCE TRAINING DET)(54101)
[232]=4 LEYTE GULF (GUIDED MISSILE CRUISER) CG 55 (21388)
[233]=4 SAN JACINTO CG 56 (21389)
[234]=4 PHILIPPINE SEA CG 58 (21429)
[235]=4 NORMANDY CG 60 (21449)
[236]=4 MONTEREY CG 61 (21450)
[237]=4 VELLA GULF CG 72 (21829)
[238]=4 GETTYSBURG CG 64 (21624)
[239]=4 LEWIS B PULLER ESB 3 (70027)
[240]=4 WASP LHD 1 (23168)
[241]=4 COMDESRON TWO (39789)
[242]=5 WINSTON S CHURCHILL (GUIDED MISSILE DESTROYER) DDG 81 (21955)
[243]=5 MITSCHER DDG 57 (21687)
[244]=5 NITZE DDG 94 (23147)
[245]=5 MASON DDG 87 (22995)
[246]=5 GONZALEZ DDG 66 (21833)
[247]=5 BAINBRIDGE DDG 96 (23153)
[248]=4 COMNAVSURFRON ONE FOUR (55273)
[249]=5 LASSEN DDG 82 (21956)
[250]=5 THOMAS HUDNER DDG 116 (50137)
[251]=5 PAUL IGNATIUS DDG 117 (50186)
[252]=5 FARRAGUT DDG 99 (23150)
[253]=5 THE SULLIVANS DDG 68 (21942)
[254]=5 SHAMAL (PATROL CRAFT) PC 13 (22147)
[255]=5 ZEPHYR PC 8 (21929)
[256]=5 TORNADO PC 14 (23156)
[257]=4 COMDESRON TWO TWO (0131A)
[258]=5 MAHAN DDG 72 (21946)
[259]=5 COLE DDG 67 (21941)
[260]=5 LABOON DDG 58 (21820)
[261]=4 COMDESRON TWO SIX (0135A)
[262]=5 OSCAR AUSTIN DDG 79 (21953)
[263]=5 MCFAUL DDG 74 (21948)
[264]=5 STOUT DDG 55 (21685)
[265]=5 TRUXTUN DDG 103 (23165)
[266]=5 JAMES E WILLIAMS DDG 95 (23148)
[267]=4 COMDESRON TWO EIGHT (39791)
[268]=5 JASON DUNHAM DDG 109 (55685)
[269]=5 GRAVELY DDG 107 (23164)
[270]=5 BULKELEY DDG 84 (22992)
[271]=5 ARLEIGH BURKE DDG 51 (21487)
[272]=5 FORREST SHERMAN DDG 98 (23149)
[273]=5 FARRAGUT DDG 99 (23150)
[274]=5 RAMAGE DDG 61 (21823)
[275]=5 DELBERT D BLACK DDG 119 (50400)
[276]=4 COMDESRON SIX ZERO (Dual hat as CTF 65 under NAVEUR/NAVAF) (55699)
[277]=5 ROOSEVELT DDG 80 (21954)
[278]=5 DONALD COOK DDG 75 (21949)
[279]=5 ROSS DDG 71 (21945)
[280]=5 PORTER DDG 78 (21952)
[281]=5 CARNEY DDG 64 (21923)
[282]=(To Mayport FL and SURFRON 14 EFF 30 Apr 2020)
[283]=4 MOUNT WHITNEY (AMPHIBIOUS COMMAND SHIP) LCC 20 (20001)
[284]=4 NEW YORK (AMPHIBIOUS TRANSPORT DOCK) LPD 21 (3013A)
[285]=4 MESA VERDE LPD 19 (32421)
[286]=4 WASP (LANDING HELICOPTER DOCK) LHD 1 (21560)
[287]=4 SAN ANTONIO LPD 17 (07207)
[288]=4 KEARSARGE LHD 3 (21700)
[289]=4 BATAAN LHD 5 (21879)
[290]=4 IWO JIMA LHD 7 (23027)
[291]=4 ARLINGTON LPD 24 (23180)
[292]=4 COMMANDER, AMPHIBIOUS SQUADRON (COMPHIBRON) FOUR (55336)
[293]=5 FLTSURGTEAM (FLTSURGTEAM) 4 (47421)
[294]=5 CARTER HALL (DOCK LANDING SHIP)LSD 50 (21880)
[295]=5 GUNSTON HALL LSD 44 (21422)
[296]=5 TORTUGA LSD 46 (21562)
[297]=4 COMPHIBRON SIX (55337)
[298]=5 FLEET SURGICAL TEAM 2 (47419)
[299]=5 FLTSURGTEAM 8 (39846)
[300]=5 FORT MCHENRY LSD 43 (21400)
[301]=5 WHIDBEY ISLAND LSD 41 (21218)
[302]=4 COMPHIBRON EIGHT (55338)
[303]=5 FLTSURGTEAM 6 (49342)
[304]=5 OAK HILL LSD 51 (21958)
[305]=4 NAVAL BEACH GROUP 2 (57067)
[306]=5 ASSAULT CRAFT UNIT (ACU) TWO (53210)
[307]=5 ACU FOUR (45472)
[308]=5 BEACH MASTSER UNIT (BMU) TWO (53211)
[309]=5 AMPHIBIOUS CONSTRUCTION BATTALION (PHIBCB) TWO (55105)
[310]=4 TACTICAL AIR CONTROL SQUADRON (TACRON) VTC 21 (09807)
[311]=4 VTC 22 (09812)
[312]=4 LITTORAL COMBAT SHIP SQUADRON (LCSRON) TWO (41145)
[313]=5 SURFACE DIVISION TWO ONE (36047)
[314]=6 MILWAUKEE LCS 5 (20134)
[315]=6 DETROIT LCS 7 (20136)
[316]=6 LITTLE ROCK LCS 9 (20138)
[317]=6 SIOUX CITY LCS 11 (20140)
[318]=5 MINE DIVISION TWO TWO (4736A)
[319]=6 WICHITA LCS 13 (20142)
[320]=6 BILLINGS LCS 15 (20096)
[321]=6 INDIANAPOLIS LCS 17 (20155)
[322]=6 ST LOUIS LCS 19 (20157)
[323]=5 MINNEAPOLIS ST PAUL LCS 21 (20159)
[324]=5 COOPERSTOWN LCS 23 (20161)
[325]=5 (PCU MARINETTE LCS 25) (20169)
[326]=5 (PCU NANTUCKET LCS 27) (20171)
[327]=5 (PCU BELOIT LCS 29) (20173)
[328]=5 (PCU CLEVELAND LCS 31) (20260)
[329]=4 NAVSURFRON FIVE (40278)
[330]=5 SENTRY MCM 3 (21404)
[331]=5 DEVASTATOR MCM 6 (21427)
[332]=5 GLADIATOR MCM 11 (21454)
[333]=5 DEXTROUS MCM 13 (21901)
[334]=5 TEMPEST PC 2 (21931)
[335]=5 HURRICANE PC 3 (21932)
[336]=5 MONSOON PC 4 (21925)
[337]=5 TYPHOON PC 5 (21926)
[338]=5 SIROCCO PC 6 (21927)
[339]=5 SQUALL PC 7 (21928)
[340]=5 CHINOOK PC 9 (22143)
[341]=5 FIREBOLT PC 10 (22144)
[342]=5 WHIRLWIND PC 11 (22145)
[343]=5 THUNDERBOLT PC 12 (22146)
[344]=4 COMMANDER, AFLOAT TRAINING GROUP ATLANTIC (COMAFLOATRAGRULANT) (0022A)
[345]=5 AFLOATRAGRU NORFOLK (30733)
[346]=5 AFLOATRAGRU MAYPORT (30734)
[347]=3 COMMANDER, SUBMARINE FORCE, ATLANTIC (57016)
[348]=(The Commander is also designated as Commander, Submarine Forces (COMSUBFOR), the Navys lead for the Undersea Warfare Enterprise (UWE)) (69295)
[349]=4 COMMANDER, SUBMARINE GROUP TWO (0010A)
[350]=5 SUBLANT SHIPYARD REPRESENTATIVE (REP) NEWPORT NEWS VA (4318A)
[351]=5 SUBLANT SHIPYARD REP GROTON CT (48518)
[352]=5 SUBLANT SHIPYARD REP PORTSMOUTH NH (41906)
[353]=5 SUBLANT SHIPYARD REP PORTSMOUTH VA (44436)
[354]=5 NAVAL SUBMARINE SUPPORT CENTER (NAVSUBSUPPCEN) GROTON (31610)
[355]=5 REGIONAL SUPPORT GROUP (REGSUPPGRU) GROTON (40018)
[356]=6 NAVAL SUBMARINE SUPPORT FACILITY (NAVSUBSUPFAC) NEW LONDON ** (68316)
[357]=6 SUBMARINE TECHNICAL SUPPORT CENTER (SUBTECHSUPCEN) (0034A)
[358]=4 SUBMARINE SQUADRON 12 (55727)
[359]=5 TOLEDO (ATTACK SUBMARINE) SSN 769 (21807)
[360]=5 SAN JUAN SSN 751 (21312)
[361]=5 PROVIDENCE SSN 719 (21029)
[362]=5 NEW MEXICO SSN 779 (23183)
[363]=5 HARTFORD SSN 768 (21806)
[364]=5 CALIFORNIA SSN 781 (20079)
[365]=5 DELAWARE SSN 791 (27153)
[366]=4 SUBMARINE SQUADRON 4 (55729)
[367]=5 MINNESOTA SSN 783 (20034)
[368]=5 NORTH DAKOTA SSN 784 (20037)
[369]=5 MONTPELIER SSN 765 (21762)
[370]=5 COLORADO SSN 788 (27150)
[371]=5 INDIANA SSN 789 (27151)
[372]=5 VIRGINIA SSN 774 (23013)
[373]=5 SOUTH DAKOTA SSN 790 (27152)
[374]=5 DELAWARE SSN 791 (27153)
[375]=4 SUBMARINE SQUADRON 6 (55730)
[376]=5 ALBANY SSN 753 (21462)
[377]=5 NEWPORT NEWS SSN 750 (21411)
[378]=(To Groton, CT and CSR 4 EFF 1 SEP 2020)
[379]=5 BOISE SSN 764 (21761)
[380]=5 HELENA SSN 725 (21367)
[381]=5 JOHN WARNER SSN 785 (20038)
[382]=5 WASHINGTON SSN 787 (20182)
[383]=5 SAN FRANCISCO SSN 711 (20887)
[384]=(Into MTS CONVERSION 15 Nov 2016)
[385]=5 NEW HAMPSHIRE SSN 778 (23172)
[386]=5 PASADENA SSN 752 (21413)
[387]=5 NEW MEXICO SSN 779 (23183)
[388]=5 COMMANDER, ANTI-SUBMARINE WARFARE FORCES WESTERN ATLANTIC (COMASWFORWESTLANT) (31834)
[389]=4 SUBMARINE GROUP 8 (55782)
[390]=5 SUBGRU 8 REP NORTHWOOD UK (30751)
[391]=4 SUBMARINE GROUP 10 (55241)
[392]=5 SUBSUPPCEN KINGS BAY (61107)
[393]=5 TRIDENT REFIT FACILITY ** (44466)
[394]=5 SUBMARINE SQUADRON 16 (55432)
[395]=6 FLORIDA (GUIDED MISSILE SUBMARINE) SSGN 728 (21038)
[396]=6 GEORGIA SSGN 729 (21039)
[397]=6 WYOMING SSBN 742 (21846)
[398]=(To Kings Bay, GA and SUBRON 20 1 Jun 2020)
[399]=5 SUBMARINE SQUADRON 20 (63976)
[400]=6 TENNESSEE (FLEET BALLISTIC MISSILE SUBMARINE) SSBN 734 (21044)
[401]=6 ALASKA SSBN 732 (21042)
[402]=6 WEST VIRGINIA SSBN 736 (21365)
[403]=6 MARYLAND SSBN 738 (21460)
[404]=6 RHODE ISLAND SSBN 740 (21682)
[405]=3 COMMANDER, NAVY EXPEDITIONARY COMBAT COMMAND (4582A)
[406]=4 NAVY EXPEDITIONARY INTELLIGENCE COMMAND (NAVEXINTCOM) (33800)
[407]=4 (NAVEXINTCOM DET DAM NECK) (40623)
[408]=4 NAVAL EXPEDITIONARY COMBAT FORCES EURAF (4974A)
[409]=4 COMMANDER, COASTAL RIVERINE GROUP (CORIVGRU) TWO (4365A)
[410]=4 (CORIVGRU TWO DET CSS) (55889)
[411]=(CORIVGRU TWO DET BAHRAIN) (3521B)
[412]=5 CORIV SQUADRON (CORIVRON) TWO (3371B)
[413]=6 CORIVRON TWO MK VI COMPANY ALPHA (36080)
[414]=7 CORIVRON TWO MK VI COMP ALPHA BOAT CREW 1(36087)
[415]=7 CORIVRON TWO MK VI COMP ALPHA BOAT CREW 2(36088)
[416]=7 CORIVRON TWO MK VI COMP ALPHA BOAT CREW 3(36089)
[417]=6 CORIVRON TWO MK VI COMPANY BRAVO (36081)
[418]=7 CORIVRON TWO MK VI COMP BRAVO BOAT CREW 1(36090)
[419]=7 CORIVRON TWO MK VI COMP BRAVO BOAT CREW 2(36091)
[420]=7 CORIVRON TWO MK VI COMP BRAVO BOAT CREW 3(36092)
[421]=5 CORIVRON FOUR (30671)
[422]=6 CORIVRON FOUR MK VI COMPANY ALPHA (36082)
[423]=7 CORIVRON FOUR MK VI COMP ALPHA BOAT CREW 1(36093)
[424]=7 CORIVRON FOUR MK VI COMP ALPHA BOAT CREW 2(36094)
[425]=7 CORIVRON FOUR MK VI COMP ALPHA BOAT CREW 3(36095)
[426]=6 CORIVRON FOUR MK VI COMPANY BRAVO (36083)
[427]=7 CORIVRON FOUR MK VI COMP BRAVO BOAT CREW 1(36096)
[428]=7 CORIVRON FOUR MK VI COMP BRAVO BOAT CREW 2(36097)
[429]=7 CORIVRON FOUR MK VI COMP BRAVO BOAT CREW 3(36098)
[430]=5 CORIVRON EIGHT (30665)
[431]=5 CORIVRON TEN (30667)
[432]=4 NAVAL CONSTRUCTION GROUP (NCG) TWO (55460)
[433]=5 UNDER WATER CONSTRUCTION TEAM (UCT) ONE (30121)
[434]=5 NAVY MOBILE CONSTRUCTION BATTALION (NMCB) 1 (55101)
[435]=5 (NMCB ONE DET TWO) (66687)
[436]=5 NMCB 11 (4608A)
[437]=5 NMCB 133 (55451)
[438]=5 CONSTRUCTION BATTALION MAINTENANCE UNIT (CBMU)
[439]=202 (55643)
[440]=202 (CBMU 202 DET JACKSONVILLE) (66671)
[441]=5 SEVENTH NAVAL CONSTRUCTION REGIMENT (NCR) (81387)
[442]=6 NMCB 27 (08867)
[443]=6 NMCB 14 (08913)
[444]=5 TWO TWO NCR (55614)
[445]=5 (COMMANDER TWO TWO NCR DET EUROPE) (41908)
[446]=4 COMMANDER, NAVY EXPEDITIONARY LOGISTICS SUPPORT GROUP (COMNAVELSG) (81464)
[447]=5 FIRST NAVY EXPEDITIONARY LOGISTICS REGIMENT (NAVEXPLOGREG) (66895)
[448]=6 NAVY CARGO HANDLING BATTALION (NAVCARGOBN) ONE (55132)
[449]=5 SECOND NAVEXPLOGREG (82215)
[450]=6 NAVCARGOBN TEN (40378)
[451]=6 NAVCARGOBN EIGHT (81203)
[452]=5 FOURTH NAVEXPLOGREG (49423)
[453]=6 NAVCARGOBN ELEVEN (82216)
[454]=6 NAVCARGOBN THIRTEEN (82218)
[455]=5 FIFTH NAVEXPLOGREG (42716)
[456]=6 NAVCARGOBN FIVE (81125)
[457]=6 NAVCARGOBN FOURTEEN (82219)
[458]=4 EXPLOSIVE ORDNANCE DISPOSAL (EOD) GROUP 2 (55322)
[459]=5 EOD TECHNICAL UNIT 2 (43505)
[460]=5 MOBILE DIVING AND SALVAGE UNIT (MOBDIVSALU) TWO (42838)
[461]=5 EOD MOBILE UNIT (MU) 2 (43504)
[462]=5 (EODMU 2 DET CRANE) (30702)
[463]=5 (EODMU 2 DET NORFOLK) (45682)
[464]=(EODMU 2 DET YORKTOWN) (30720)
[465]=5 EODMU 6 (55238)
[466]=5 (EODMU 6 DET KINGS BAY) (42970)
[467]=5 (EODMU 6 DET MAYPORT) (42038)
[468]=(EODMU 6 DET PANAMA CITY) (30712)
[469]=5 EODMU 8 (55568)
[470]=5 (EODMU 8 DET ROTA) (30715)
[471]=5 EODMU 12 (43973)
[472]=5 (EODMU 12 DET DAHLGREN) (30703)
[473]=5 (EODMU 12 DET EARLE) (30704)
[474]=(EODMU 12 DET NEWPORT) (30713)
[475]=5 EOD EXPEDITIONARY SUPPORT UNIT (ESU) 2 (4068A)
[476]=4 NAVY EXPEDITIONARY COMBAT FORCES CENTRAL BAHRAIN (49715)
[477]=3 NAVY MUNITIONS COMMAND ATLANTIC (NMCLANT) (47616)
[478]=3 (NMCLANT DET OCEANA) (31279)
[479]=3 (NMCLANT DET KEY WEST) (61167)
[480]=(NMCLANT DET YORKTOWN) (00109)
[481]=(NMCLANT DET JACKSONVILLE) (61166)
[482]=(NMCLANT DET EARLE) (60478)
[483]=(NMCLANT DET MAYPORT) (61045)
[484]=(NMCLANT DET FORT WORTH) (61163)
[485]=(NMCLANT DET NEW ORLEANS) (61164)
[486]=(NMCLANT DET SIGONELLA) (50200)
[487]=(NMCLANT DET ROTA) (50201)
[488]=(NMCLANT DET SOUDA BAY) (50202)
[489]=(NMCLANT DET BAHRAIN) (50203)
[490]=(NMCLANT DET PATUXENT RIVER) (61168)
[491]=4 NMCLANT UNIT CHARLESTON (00193)
[492]=4 NMCLANT UNIT NORFOLK (30300)
[493]=3 COMMANDER, MILITARY SEALIFT COMMAND (COMSC) (NAVY WORKING CAPITAL FUND (NWCF), NORFOLK, VA (00033)
[494]=3 (MSC DET U S MERCHANT MARINE ACADEMY) (50191)
[495]=(MSC DET PACIFIC) (45786)
[496]=4 COMFORT MEDICAL TREATMENT FACILITY (MTF) REDUCED OPERATING STATUS (ROS) (52451)
[497]=4 MERCY MTF ROS (52450)
[498]=4 COMMANDER MARITIME PRE-POSITIONING SHIP SQUADRON (COMPSRON) TWO (45702)
[499]=4 COMPSRON THREE (46404)
[500]=4 AMPHIBIOUS COMMAND SHIP (LCC) 20 USS MOUNT WHITNEY (HYBRID CREW) CIVMAR(23754)
[501]=4 MSC TAGOS PROJECT OFFICE (46077)
[502]=5 PCU T-AO 205 USNS JOHN LEWIS (21667)
[503]=5 PCU T-AO 206 USNS HARVEY MILK (21021)
[504]=5 PCU T-AO 207 USNS EARL WARREN (21012)
[505]=5 PCU T-A0 208 USNS ROBERT KENNEDY (29995)
[506]=5 PCU T-AO 209 USNS LUCY STONE (29996)
[507]=5 PCU T-AO 210 USNS SOJOURNER TRUTH (2999C)
[508]=4 COMSC LANT NORFOLK (62385)
[509]=4 (MSC LANT DET EARLE) (4381A)
[510]=5 MSC REP PORT CANAVERAL (0308A)
[511]=5 MSC REP CHARLESTON (68779)
[512]=5 MSC REP SOUTHPORT (30817)
[513]=5 MSC REP BEAUMONT (62527)
[514]=5 MSCLANT OPERATIONAL SUPPORT ELEMENT (OPSUPE)(41083)
[515]=5 HIGH SPEED TRANSPORT (HST) 2 FORMER HI SUPERFERRY ALAKAI (PRE-DELIVERY (PREDEL)) (24047)
[516]=5 EXPEDITIONARY FAST TRANSPORT (T-EPF) 1 USNS SPEARHEAD (29784)
[517]=5 T-EPF 10 USNS BURLINGTON (29793)
[518]=5 T-EPF 12 (PREDEL) USNS NEWPORT (29795)
[519]=5 EXPEDITIONARY SEA BASE (ESB) 4 USNS HERSHEL W WILLIAMS CIVMAR (24305)
[520]=5 CONTAINER SHIP (T-AK) 3005 UNITED STATES NAVAL SHIP (USNS) SGT MATEJ KOCAK (21547)
[521]=5 T-AK 3006 USNS PFC EUGENE A OBREGON (21513)
[522]=5 T-AK 3007 USNS MAJ STEPHEN W PLESS (21631)
[523]=5 T-AK 3015 USNS 1ST LT HARRY L MARTIN (23005)
[524]=5 T-AK 3016 USNS LCPL ROY M WHEAT (23068)
[525]=5 DRY CARGO/AMMUNITION (T-AKE) 5 USNS ROBERT E PEARY (23195)
[526]=5 T-AKE 12 USNS WILLIAM MCLEAN (29001)
[527]=5 T-AKE 13 USNS MEDGAR EVERS (29002)
[528]=5 FLEET REPLENISHMENT OILER (T-AO) 188 USNS JOSHUA HUMPHREYS (21419)
[529]=5 T-AO 189 USNS JOHN LENTHALL (21377
[530]=5 T-AO 195 USNS LEROY GRUMMAN (21525)
[531]=5 T-AO 196 USNS KANAWHA (21581)
[532]=5 T-AO 198 USNS BIG HORN (21621)
[533]=5 T-AO 201 USNS PATUXENT (21857)
[534]=5 T-AO 203 USNS LARAMIE (21870)
[535]=5 FAST COMBAT SUPPORT (T-AOE) 6 USNS SUPPLY (21839)
[536]=5 T-AOE 8 USNS ARCTIC (21907)
[537]=5 FLEET OCEAN TUG (T-ATF) 172 USNS APACHE (21091)
[538]=5 HOSPITAL SHIP (T-AH) 20 USNS COMFORT (21637)
[539]=5 OCEANOGRAPHIC SURVEY SHIP (T-AGS) 60 USNS PATHFINDER (21904)
[540]=5 T-AGS 66 USNS MAURY (10544)
[541]=5 T-AGS 45 USNS WATERS (21903)
[542]=5 SUBMARINE AND SPECIAL WARFARE SUPPORT (SSV) MOTOR VESSEL (MV) DOLORES CHOUEST (40878)
[543]=5 MV WESTWIND (24014)
[544]=5 MV BLACK POWDER (24015)
[545]=5 T-AKR 295 USNS SHUGHART (22241)
[546]=5 T-AKR 296 USNS GORDON (22242)
[547]=5 T-AKR 297 USNS YANO (22243)
[548]=5 T-AKR 298 USNS GILLILAND (22244)
[549]=5 T-AKR 303 USNS MENDONCA (22249)
[550]=5 T-AKR 305 USNS BRITTIN (22251)
[551]=5 T-AKR 310 USNS WATSON (22256)
[552]=4 COMSC EUROPE AFRICA (EURAF) NAPLES (62537)
[553]=5 MSC SHIP SUPPORT UNIT (SSU) NAPLES (40444)
[554]=5 T-EPF 5 USNS TRENTON (29788)
[555]=5 T-EPF 7 USNS CARSON CITY (29790)
[556]=5 T-EPF 8 USNS YUMA (29791)
[557]=4 COMSC CENTRAL COMMAND (CENT) BAHRAIN (68953)
[558]=5 MSC SSU BAHRAIN (40448)
[559]=5 T-AKE 3 USNS ALAN SHEPARD (23193)
[560]=5 T-ATF 168 USNS CATAWBA (21015)
[561]=5 T-AGS 64 USNS BRUCE C HEEZEN (23131)
[562]=5 T-EPF 2 USNS CHOCTAW COUNTY (29785)
[563]=4 COMSC PAC SAN DIEGO (62386)
[564]=5 MSC SSU SAN DIEGO (40443)
[565]=5 MSC REP PEARL HARBOR (62402)
[566]=5 MSC REPRESENTATIVE PUGET SOUND (62384)
[567]=5 EXPEDITIONARY TRANSFER DOCK (ESD) 2 USNS JOHN GLENN (41037)
[568]=5 T-AKE 7 USNS CARL BRASHEAR (23197)
[569]=5 T-AKE 8 USNS WALLY SCHIRRA (23198)
[570]=5 T-AKE 9 USNS MATTHEW PERRY (23199)
[571]=5 T-AKE 10 USNS CHARLES DREW (23602)
[572]=5 T-AKR 300 USNS BOB HOPE (22246)
[573]=5 T-AKR 301 USNS FISHER (22247)
[574]=5 T-AKR 306 USNS BENAVIDEZ (22252)
[575]=5 T-AO 187 USNS HENRY J KAISER (21307)
[576]=5 T-AO 200 USNS GUADALUPE (21856)
[577]=5 T-AO 202 USNS YUKON (21869)
[578]=5 T-ATF 171 USNS SIOUX (21090)
[579]=5 T-AH 19 USNS MERCY (21636)
[580]=5 SSV MV C-COMMANDO (23379)
[581]=5 MV ARROWHEAD (24013)
[582]=5 MV EAGLEVIEW (24016)
[583]=5 MV SPECIAL WARFARE SUPPORT (HOS) DOMINATOR (24102)
[584]=5 MV MALAMA (32205)
[585]=5 SPECIAL MISSION TEST (SBX-1) (24133)
[586]=5 T-EPF 9 USNS CITY OF BISMARCK (29792)
[587]=5 T-ARS 51 USNS GRASP (21467)
[588]=4 COMSC FAR EAST SINGAPORE (62461)
[589]=5 MSC OFFICE KOREA WCF (0319A)
[590]=5 MSCO OKINAWA WCF (0318A)
[591]=5 MSC SSU JAPAN (40447)
[592]=5 MSC SSU GUAM (40446)
[593]=5 MSC SSU SINGAPORE (40445)
[594]=5 ESD 1 USNS MONTFORD POINT (41036)
[595]=5 T-ARS 51 USNS SALVOR (21468)
[596]=5 T-AKE 1 USNS LEWIS AND CLARK (23191)
[597]=5 T-AKE 2 USNS SACAGAWEA (23192)
[598]=5 T-AKE 4 USNS RICHARD E BYRD (23194)
[599]=5 T-AKE 6 USNS AMELIA EARHART (23196)
[600]=5 T-AKE 11 USNS WASHINGTON CHAMBERS (23726)
[601]=5 T-AKE 14 USNS CESAR CHAVEZ (29003)
[602]=5 T-AO 193 USNS WALTER S DIEHL (21579)
[603]=5 T-AO 194 USNS JOHN ERICSSON (21524)
[604]=5 T-AO 197 USNS PECOS (21582)
[605]=5 T-AO 199 USNS TIPPECANOE (21622)
[606]=5 T-AO 204 USNS RAPPAHANNOCK (21871)
[607]=5 CABLE LAYING/REPAIR SHIP (T-ARC) 7 USNS ZEUS(21323)
[608]=5 OCEAN SURVEILLANCE SHIP (T-AGOS) 19 USNS VICTORIOUS (21814)
[609]=5 T-AGOS 20 USNS ABLE (21866)
[610]=5 T-AGOS 21 USNS EFFECTIVE (21867)
[611]=5 T-AGOS 22 USNS LOYAL (21868)
[612]=5 T-AGOS 23 USNS IMPECCABLE (21906)
[613]=5 T-AGS 62 USNS BOWDITCH (22154)
[614]=5 T-AGS 63 USNS HENSON (22266)
[615]=5 T-AGS 65 USNS MARY SEARS (23167)
[616]=5 MISSILE RANGE INSTRUMENTATION SHIP (T-AGM)
[617]=24 USNS INVINCIBLE (21306)
[618]=5 T-AGM 25 USNS HOWARD O LORENZEN (10546)
[619]=5 SSV MV C-CHAMPION (23896)
[620]=5 T-AK 3008 USNS 2ND LT JOHN P BOBO (21629)
[621]=5 T-AK 3009 USNS PFC DEWAYNE T WILLIAMS (21630)
[622]=5 T-AK 3010 USNS 1ST LT BALDOMERO LOPEZ (21512)
[623]=5 T-AK 3011 USNS 1ST LT JACK LUMMUS (21633)
[624]=5 T-AK 3012 USNS SGT WILLIAM R BUTTON (21663)
[625]=5 T-AK 3017 USNS GYSGT FRED W STOCKHAM (23069)
[626]=5 T-AK 4396 MV MAJ BERNARD F FISHER (23276)
[627]=5 T-AK 4543 MV LTC JOHN U D PAGE (23423)
[628]=5 T-AK 4544 MV SSG EDWARD A CARTER JR (23424)
[629]=5 T-AK 5362 MV CAPT DAVID I LYON (24242)
[630]=5 LARGE, MEDIUM-SPEED ROLL ON/ROLL OFF (T-AKR) 302 USNS SEAY (22248)
[631]=5 T-AKR 304 USNS PILILAAU (22250)
[632]=5 T-AKR 311 USNS SISLER (22257)
[633]=5 T-AKR 312 USNS DAHL (22258)
[634]=5 T-AKR 313 USNS RED CLOUD (22259)
[635]=5 T-AKR 314 USNS CHARLTON (22260)
[636]=5 T-AKR 315 USNS WATKINS (22261)
[637]=5 T-AKR 316 USNS POMEROY (22262)
[638]=5 T-AKR 317 USNS SODERMAN (22263)
[639]=5 OFF SHORE PETROLEUM DISTRIBUTION SYSTEM (T-AG) 5001 VADM K R WHEELER (23881)
[640]=5 HIGH SPEED VESSEL (HSV) 4676 WESTPAC EXPRESS(23556)
[641]=5 HST 1 USNS GUAM (24046)
[642]=5 T-EPF 3 USNS MILLINOCKET (29786)
[643]=5 T-EPF 4 USNS FALL RIVER (29787)
[644]=5 T-EPF 6 USNS BRUNSWICK (29789)
[645]=5 T-AS 40 USS FRANK CABLE (HYBRID CREW) (23950)
[646]=5 T-AS 39 USS EMORY S LAND (HYBRID CREW) (23914)
[647]=2 COMMANDER, U.S. PACIFIC FLEET (COMPACFLT) (00070)
[648]=2 (COMPACFLT DET INTEL READINESS CELL) (30478)
[649]=2 (JOINT MOBILE ASHORE SUPPORT TEAM PAC) (43670)
[650]=(CPF MHLD DET COMPACAREA) (45549)
[651]=(CPF MHLD DET ALASKA) (48398)
[652]=(CPF MHLD DET EAST ASIA) (33415)
[653]=(CPF MHLD DET PACNORWEST) (33429)
[654]=(AFLOAT PLANNING SYSTEM PACIFIC) (39493)
[655]=(COMPACFLT DET HICKAM) (40525, 32197)
[656]=3 NAVAL AIR FORCE, U.S. PACIFIC FLEET (57025)
[657]=(The Commander is also designated as Commander,
[658]=Naval Air Forces (COMNAVAIRFOR), a dual hat, who serves as the Navys lead for the Naval Aviation Enterprise (NAE). (69294)
[659]=4 COMBINED SERVICES SUPPORT SCHOOLS PACIFIC (SVCSUPPSCOLSPAC) (31527)
[660]=4 FACSFAC SAN DIEGO (09528)
[661]=4 (FACSFAC DET SCORE) (3325A)
[662]=5 FACSFAC PEARL HARBOR (43583)
[663]=4 VX 9 (55646)
[664]=4 (VX 9 DET POINT MUGU) (09830)
[665]=4 (VX 9 DET EDWARDS) (58601)
[666]=4 33FW NAVY F35 EGLIN AFB FL (0952A)
[667]=4 NIMITZ (CVN 68) (03368)
[668]=4 VINSON (CVN 70) (20993)
[669]=4 THEODORE ROOSEVELT (CVN 71) (21247)
[670]=4 ABRAHAM LINCOLN (CVN 72) (21297)
[671]=4 GEORGE WASHINGTON (CVN 73) (21412)
[672]=4 JOHN C STENNIS (CVN 74) (21847)
[673]=4 RONALD REAGAN (CVN 76) (22178)
[674]=4 COMCARAIRWING TWO (09742)
[675]=4 COMCARAIRWING FIVE (09733)
[676]=4 COMCARAIRWING NINE (09738)
[677]=4 COMCARAIRWING ELEVEN (09734)
[678]=4 COMCARAIRWING SEVENTEEN (09745)
[679]=4 HELICOPTER SEA COMBAT WING PACIFIC (HELSEACOMBATWINGPAC) (55635)
[680]=4 (HELSEACOMBATWINGPAC VTUAV MAINTENANCE DET)(53510)
[681]=5 HELSEACOMBATWEPSCOLPAC (3166A)
[682]=5 HSC 3 FLEET REPLACEMENT SQUADRON (FRS) (09822)
[683]=5 (HSC 3 DET SCORE) (09569)
[684]=5 HSC 4 (09164)
[685]=5 HSC 6 (09950)
[686]=5 HSC 8 (09951)
[687]=5 HSC 12 (09372)
[688]=5 HSC14 (09209)
[689]=5 HSC 21 (42300)
[690]=5 HSC 23 (09848)
[691]=5 HSC 25 (52961)
[692]=4 HELICOPTER MARITIME STRIKE WING PACIFIC (55630)
[693]=5 HELMARSTRIKEWEPSCOLPAC (3168A)
[694]=5 HSM 35 (52876)
[695]=5 HSM 37 (53815)
[696]=5 HSM 41 (FRS) (55138)
[697]=5 HSM 49 (55152)
[698]=5 HSM51 (48550)
[699]=5 (HSM 51 DET 11) (31778)
[700]=5 HSM 71 (09855)
[701]=5 HSM 73 (55146)
[702]=5 HSM 75 (53915)
[703]=5 HSM 77 (55150)
[704]=5 HSM 78 (09886)
[705]=5 HSM 79 (57820)
[706]=4 NAVAL AVIATION TRAINING SUPPORT GROUP NEW RIVER(36084)
[707]=4 AIRBORNE COMMAND & CONTROL AND LOGISTICS WING (ACCLOGWING) (55634)
[708]=4 (ACCLOGWING DET NORFOLK) (09052)
[709]=(UCLASS FIT POINT MUGU) (58250)
[710]=(AIRBORNE COMMAND & CONTROL AND LOGISTICS WEAPONS SCHOOL PACIFIC) POINT MUGU (3231A)
[711]=(AIRBORNE COMMAND & CONTROL AND LOGISTICS WEAPONS SCHOOL ATLANTIC) NORFOLK (3123B)
[712]=(UNCLASS FIT) (58250)
[713]=5 FLEET LOGISTICS SUPPORT SQUADRON (VRC) 40 (09303)
[714]=5 VRC 30 (09607)
[715]=5 VRC 30 DET 5 (39491)
[716]=5 AIRBORNE COMMAND AND CONTROL SQUADRON (VAW) 113 (09459)
[717]=5 VAW 115 (09463)
[718]=5 VAW 116 (09465)
[719]=5 VAW 117 (09985)
[720]=5 VAW 120 (FRS) (09527)
[721]=5 VAW 121 (09467)
[722]=5 VAW 123 (09477)
[723]=5 VAW 124 (09526)
[724]=5 VAW 125 (09922)
[725]=5 VAW 126 (09963)
[726]=4 FLEET LOGISTICS MULTI-MISSION WING (VRMWING)(5000A)
[727]=4 (VRMWING VMTT DET 204) (33455)
[728]=5 FLEET LOGISTICS MULTI-MISSION SQUADRON (VRM) 30 (36122)
[729]=5 VRM 50 (FRS) (4991D)
[730]=4 STRIKE FIGHTER WING PACIFIC (09520)
[731]=4 (STRKFIGHTWINGPAC DET NAMCE LEMOORE CA) (50447)
[732]=4 (STRKFIGHTWINGPAC MAINTENANCE UNIT EL CENTRO) (55257)
[733]=5 STRIKE FIGHTER WEAPONS SCHOOL PACIFIC (35185)
[734]=5 VFA 2 (09113)
[735]=5 VFA 14 (09084)
[736]=5 VFA 22 (09561)
[737]=5 VFA 25 (09637)
[738]=5 VFA 27 (65185)
[739]=5 VFA 41 (09774)
[740]=5 VFA 86 (09943)
[741]=5 VFA 94 ` (09295)
[742]=5 VFA 97 (63923)
[743]=5 VFA 102 (09717)
[744]=5 VFA 113 (09092)
[745]=5 VFA 115 (09604)
[746]=5 VFA 122 (FRS) (09355)
[747]=5 VFA 136 (55141)
[748]=5 VFA 137 (55142)
[749]=5 VFA 146 (09063)
[750]=5 VFA 151 (09558)
[751]=5 VFA 154 (09678)
[752]=5 VFA 192 (09076)
[753]=5 VFA 195 (09706)
[754]=4 JOINT STRIKE FIGHTER WING (36203)
[755]=(JSFWING)
[756]=5 VFA 125 (09485)
[757]=5 VFA 147 (63925)
[758]=4 ELECTRONIC ATTACK WING PACIFIC (55627)
[759]=5 ELECTRONIC ATTACK WEAPONS SCHOOL (47445)
[760]=5 VAQ 129 (FRS) (09995)
[761]=5 VAQ 130 (09289)
[762]=5 VAQ 131 (09364)
[763]=5 VAQ 132 (09615)
[764]=5 VAQ 133 (09969)
[765]=5 VAQ 134 (09970)
[766]=5 VAQ 135 (09971)
[767]=5 VAQ 136 (09973)
[768]=5 VAQ 137 (09996)
[769]=5 VAQ 138 (09199)
[770]=5 VAQ 139 (09200)
[771]=5 VAQ 140 (53806)
[772]=5 VAQ 141 (53807)
[773]=5 VAQ 142 (55140)
[774]=4 PATROL AND RECONNAISSANCE GROUP PACIFIC (09517)
[775]=(The Command is assigned as a dual hat for
[776]=COMMANDER, PATROL AND RECONNAISSANCE GROUP (39555),
[777]=who serves as lead to coordinate Title 10 programs
[778]=for all Maritime Patrol and Reconnaissance Forces,
[779]=and reports under COMNAVAIRLANT.)
[780]=5 PATROL AND RECONNAISSANCE WING 10 (55165)
[781]=5 (COMPATRECONWING TEN DET FSU) (4353A)
[782]=5 (MTOC TWO) (48765)
[783]=(MTOC FOUR) (31625)
[784]=(MTOC SIX) (49136)
[785]=(MTOC EIGHT) (55700)
[786]=(MTOC TEN) (55701)
[787]=(MTOC TWELVE) (55702)
[788]=6 TOC WHIDBEY ISLAND (45521)
[789]=6 TOC KANEOHE (46029)
[790]=6 VP 1 (09618)
[791]=6 VP 4 (09623)
[792]=6 VP 40 (09674)
[793]=6 VP 46 (09632)
[794]=6 VP 47 (09600)
[795]=6 VP 9 (09644)
[796]=6 VPU 2 (09244)
[797]=6 FLEET AIR RECONNAISSANCE SQUADRON (VQ) 1 (09930)
[798]=4 STRATEGIC COMMUNICATIONS WING (STRATCOMMWING) ONE (55575)
[799]=5 TAKE CHARGE AND MOVE OUT (TACAMO) WEAPONS SCHOOL (60030)
[800]=5 VQ 3 (55154)
[801]=5 (VQ 3 DET TRAVIS) (47294)
[802]=5 (VQ 3 DET OFFUTT) (55677)
[803]=5 VQ 4 (42065)
[804]=5 (VQ 4 DET PATUXENT) (49403)
[805]=5 VQ 7 (FRS) (47372)
[806]=4 COMMANDER, FLEET AIR WESTERN PACIFIC (COMFAIRWESTPAC) (09356)
[807]=4 (COMFAIRWESTPAC AIMD MISAWA) (44331)
[808]=(COMFAIRWESTPAC AIMD ATSUGI) (44323)
[809]=(COMFAIRWESTPAC AIMD IWAKUNI) (49340)
[810]=(COMFAIRWESTPAC AIMD BAHRAIN) (44337)
[811]=(COMFAIRWESTPAC AIMD GUAM) (50185)
[812]=(COMFAIRWESTPAC AIMD KADENA) (3977A)
[813]=(COMFAIRWESTPAC AVIATION SUPPLY DETACHMENT (ASD)) BAHRAIN) (3556A)
[814]=(COMFAIRWESTPAC ASD MISAWA) (3557A)
[815]=(COMFAIRWESTPAC ASD GUAM) (50527)
[816]=(COMFAIRWESTPAC ASD ATSUGI) (51212)
[817]=(COMFAIRWESTPAC ASD IWAKUNI) (51211)
[818]=(COMFIARWESTPAC ASD KADENA (51213)
[819]=5 NAVAL AIR WEAPONS MAINTEMAMCE UNIT ONE (52821)
[820]=3 NAVAL SURFACE FORCE U.S. PACIFIC FLEET (53824)
[821]=(The Commander is also designated as COMMANDER,
[822]=NAVAL SURFACE FORCES (COMNAVSURFOR) under UIC 69293, a dual hat, who serves as the Navys lead for the Surface Warfare Enterprise (SWE) (69293)
[823]=4 SOMERSET LPD 25 (23181)
[824]=4 LAKE ERIE CG 70 (21827)
[825]=4 BUNKER HILL CG 52 (21345)
[826]=4 MOBILE BAY CG 53 (21346)
[827]=4 LAKE CHAMPLAIN CG 57 (21428)
[828]=4 PRINCETON CG 59 (21447)
[829]=4 COWPENS CG 63 (21623)
[830]=4 BONHOMME RICHARD LHD 6 (22202)
[831]=4 JOHN P MURTHA LPD 26 (23182)
[832]=4 PORTLAND LPD 27 (3277A)
[833]=4 TRIPOLI LHA 7 (27501)
[834]=4 MIGUEL KEITH ESB 5 (70026)
[835]=(HULL HUBBED AT SAIPAN, MARIANAS)
[836]=4 AMPHIBIOUS SQUADRON 7 (55298)
[837]=(Establish EFF 1 July 2020)
[838]=4 SURFACE DEVELOPMENT SQUADRON ONE (55770)
[839]=5 ZUMWALT DDG 1000 (20121)
[840]=5 MICHAEL MONSOOR DDG 1001 (23189)
[841]=5 (LYNDON JOHNSON DDG 1002) (41163)(PCU)
[842]=4 NAVAL SURFACE GROUP WESTPAC (36139)
[843]=5 ANTIETAM CG 54 (21387)
[844]=5 CHANCELLORSVILLE CG 62 (21451)
[845]=5 SHILOH CG 67 (21657)
[846]=5 CURTIS WILBUR DDG 54 (21640)
[847]=5 JOHN S MCCAIN DDG 56 (21686)
[848]=5 MCCAMPBELL DDG 85 (22993)
[849]=5 MUSTIN DDG 89 (22997)
[850]=5 BENFOLD DDG 65 (21940)
[851]=5 BARRY DDG 52 (21660)
[852]=5 MILIUS DDG 69 (21943)
[853]=4 DESTROYER SQUADRON 1 (0172A)
[854]=5 OKANE DDG 77 (21951)
[855]=5 DEWEY DDG 105 (23162)
[856]=5 MICHAEL MURPHY DDG 112 (55688)
[857]=5 FITZGERALD DDG 62 (21824)
[858]=5 HIGGINS DDG 76 (21950)
[859]=4 DESTROYER SQUADRON 7/MARITIME STAFF ELEMENT (0116A)
[860]=4 DESTROYER SQUADRON9 (0118A)
[861]=5 SHOUP DDG 86 (22994)
[862]=5 HOWARD DDG 83 (22999)
[863]=6 CHAFEE DDG 90 (23155)
[864]=6 RALPH JOHNSON DDG 114 (50125)
[865]=5 STERETT DDG 104 (23166)
[866]=5 HALSEY DDG 97 (23154)
[867]=5 SAMPSON DDG 102 (23161)
[868]=4 DESTROYER SQUADRON 15 (0124A)
[869]=4 DESTROYER SQUADRON21 (0130A)
[870]=5 DECATUR DDG 73 (21947)
[871]=5 STOCKDALE DDG 106 (23163)
[872]=5 CHUNG-HOON DDG 93 (23146) 5 STETHEM DDG 63 (21825)
[873]=5 SPRUANCE DDG 111 (55687)
[874]=5 GRIDLEY DDG 101 (23151)
[875]=4 DESTROYER SQUADRON23 (0132A)
[876]=5 PREBLE DDG 88 (22996)
[877]=5 RUSSELL DDG 59 (21821)
[878]=5 RAFAEL PERALTA DDG 115 (50126)
[879]=5 PINCKNEY DDG 91 (23145)
[880]=5 KIDD DDG 100 (23152)
[881]=5 PAUL HAMILTON DDG 60 (21822)
[882]=4 NAVAL SURFACE GROUP MIDDLE PACIFIC (55315)
[883]=(The Commander is assigned a dual hat as
[884]=COMMANDER, NAVY REGION HAWAII (61449) under
[885]=COMMANDER, NAVY INSTALLATIONS COMMAND as the Regional
[886]=Commander.)
[887]=5 PORT ROYAL CG 73 (21830)
[888]=5 DESTROYER SQUADRON 31 (55528)
[889]=6 JOHN PAUL JONES DDG 53 (21313)
[890]=6 HOPPER DDG 70 (21944)
[891]=6 MOMSEN DDG 92 (23160)
[892]=6 WILLIAM P LAWRENCE DDG 110 (55686)
[893]=6 PCU DANIEL INOUYE DDG 118 (50187)
[894]=(Initial HP Assign Pearl Harbor EFF 30 Apr 2020)
[895]=6 WAYNE E MEYER DDG 108 (55684)
[896]=6 JOHN FINN DDG 113 (20010)
[897]=4 LCS SQUADRON 1 (39872)
[898]=4 (LCSRON 1 DET MISSION PACKAGE SUPPORT FACILITY) (42420)
[899]=5 FREEDOM LCS 1 (20126)
[900]=5 INDEPENDENCE LCS 2 (20127)
[901]=5 FORT WORTH LCS 3 (20130)
[902]=5 CORONADO LCS 4 (20131)
[903]=5 MINE DIVISION TWELVE (0091C)
[904]=6 MANCHESTER LCS 14 (20095)
[905]=6 TULSA LCS 16 (20097)
[906]=6 CHARLESTON LCS 18 (20156)
[907]=6 CINCINNATI LCS 20 (20158)
[908]=5 KANSAS CITY LCS 22 (20160)
[909]=5 (PCU OAKLAND LCS 24) (20168)
[910]=5 (PCU MOBILE LCS 26) (20170)
[911]=5 (PCU SAVANNAH LCS 28) (20172)
[912]=5 (PCU CANBERRA LCS 30) (20259)
[913]=5 (PCU SANTA BARBARALCS 32) (20261)
[914]=5 (PCU AUGUSTA LCS 34) (20263)
[915]=5 SURFACE DIVISION 11 (50586)
[916]=6 JACKSON LCS 6 (20135)
[917]=6 MONTGOMERY LCS 8 (20137)
[918]=6 GABRELLE GIFFORDS LCS 10 (20139)
[919]=6 OMAHA LCS 12 (20141)
[920]=4 BOXER LHD 4 (21808)
[921]=4 BLUE RIDGE LCC 19 (05840)
[922]=4 AMPHIBIOUS SQUADRON 11 (55468)
[923]=5 ASHLAND LSD 48 (21531)
[924]=5 GERMANTOWN LSD 42 (21639)
[925]=5 GREEN BAY LPD 20 (3012A)
[926]=5 FLTSURGTEAM 7 (30250)
[927]=5 NEW ORLEANS LPD 18 (23168)
[928]=4 AMPHIBIOUS SQUADRON 5 (55269)
[929]=5 FLTSURGTEAM 5 (49343)
[930]=4 AMPHIBIOUS SQUADRON 3 (55281)
[931]=5 SAN DIEGO LPD 22 (3014A)
[932]=5 PEARL HARBOR LSD 52 (21959)
[933]=5 FLTSURGTEAM 1 (47418)
[934]=4 ESSEX LHD 2 (21533)
[935]=4 RUSHMORE LSD 47 (21530)
[936]=4 HARPERS FERRY LSD 49 (21852)
[937]=4 FLTSURGTEAM 9 (30265)
[938]=4 MAKIN ISLAND LHD 8 (23171)
[939]=4 AMPHIBIOUS SQUADRON 1 (55297)
[940]=5 ANCHORAGE LPD 23 (3015A)
[941]=5 COMSTOCK LSD 45 (21452)
[942]=5 FLTSURGTEAM 3 (47420)
[943]=4 AMERICA (AMPHIBIOUS ASSAULT SHIP) LHA 6 (20103)
[944]=4 NAVAL BEACH GROUP 1 (57066)
[945]=5 ACU ONE (53257)
[946]=5 (ACU ONE DET WESTPAC A) (55419)
[947]=5 (ACU ONE LANDING CRAFT MINOR DET B) (55598)
[948]=(ACU ONE LANDING CRAFT UTILITY (LCU) DET A) (55597)
[949]=5 ACU FIVE (45411)
[950]=5 BMU ONE (53212)
[951]=5 PHIBCB ONE (55104)
[952]=5 NAVY BEACH (NAVBEACH) UNIT SEVEN (57078)
[953]=5 (NAVBEACH UNIT SEVEN DET BMU) (49388)
[954]=5 (NAVBEACH UNIT SEVEN DET LANDING CRAFT AIR CUSHION (LCAC)) (55621)
[955]=(NAVBEACH UNIT SEVEN DET LCU) (55622)
[956]=4 TACTICAL AIR CONTROL GROUP 1 (09815)
[957]=5 TACTICAL AIR CONTRO SQUADRON (VTC) 11 (55134)
[958]=5 VTC 12 (55135)
[959]=5 (VTC 12 DET WESTPAC) (55623)
[960]=4 COMMANDER, MINE COUNTERMEASURES SQUADRON (COMCMRON) SEVEN (55540)
[961]=5 PATRIOT (MINE COUNTERMEASURES SHIP) MCM 7 (21453)
[962]=5 PIONEER MCM 9 (21456)
[963]=5 CHIEF MCM 14 (21902)
[964]=5 WARRIOR MCM 10 (21457)
[965]=4 COMCMRON FIVE (55645)
[966]=4 COMCMRON THREE (55554)
[967]=5 COMMANDER MINE COUNTERMEASURES DIVISION (COMCMDIV) THREE ONE (41979)
[968]=5 CHAMPION MCM 4 (21405)
[969]=5 SCOUT MCM 8 (21455)
[970]=5 ARDENT MCM 12 (21900)
[971]=4 AFLOATRAGRU PACIFIC SAN DIEGO (57062)
[972]=5 AFLOATRAGRU SAN DIEGO (49365)
[973]=5 AFLOATRAGRU PACIFIC NORTH WEST (31379)
[974]=5 AFLOATRAGRU MIDPAC (57063)
[975]=5 AFLOATRAGRU WESTPAC (57064)
[976]=5 (AFLOATRAGRU WESTPAC DET SASEBO) (49366)
[977]=4 SURFACE FORCE PACIFIC REP PUGET SOUND (35944)
[978]=4 REGIONAL SUPPORT ORGANIZATION PACNORWEST (55271)
[979]=3 COMMANDER, SUBMARINE FORCE U.S.PACIFIC FLEET (COMSUBPAC) (57020)
[980]=4 COMMANDER, ANTI-SUBMARINE WARFARE FORCE THIRD FLEET PEARL HARBOR HI (43020)
[981]=4 EMORY S LAND SUBMARINE TENDER (AS) 39 (20635)
[982]=4 FRANK CABLE AS 40 (20865)
[983]=4 SUBMARINE SQUADRON 1 (55346)
[984]=5 CHARLOTTE SSN 766 (21763)
[985]=5 GREENEVILLE SSN 772 (21831)
[986]=5 TEXAS SSN 775 (23028)
[987]=5 HAWAII SSN 776 (23159)
[988]=5 NORTH CAROLINA SSN 777 (23190)
[989]=5 MISSISSIPPI SSN 782 (20080)
[990]=5 ILLINOIS SSN 786 (20181)
[991]=5 MISSOURI SSN 780 (20002)
[992]=5 (PCU OREGON SSN 793) (27155)
[993]=4 SUBMARINE DEVELOPMENT SQUADRON (SUBDEVRON) 5 (55522)
[994]=4 (SUBDEVRON 5 DET BANGOR WA) (52730)
[995]=(SUBDEVRON 5 DET DIVING BANGOR WA) (44904)
[996]=(SUBDEVRON 5 DET UUV BANGOR WA) (45242)
[997]=5 UUVRON ONE (4000Y)
[998]=5 JIMMY CARTER SSN 23 (41718)
[999]=5 CONNECTICUT SSN 22 (21859)
[1000]=5 SEAWOLF SSN 21 (21834)
[1001]=4 SUBMARINE SQUADRON 7 (53896)
[1002]=5 COLUMBUS SSN 762 (21692)
[1003]=5 SANTA FE SSN 763 (21693)
[1004]=5 TUCSON SSN 770 (21816)
[1005]=5 COLUMBIA SSN 771 (21817)
[1006]=5 CHEYENNE SSN 773 (21832)
[1007]=5 JEFFERSON CITY SSN 759 (21605)
[1008]=5 CHICAGO SSN 721 (21100)
[1009]=5 SPRINGFIELD SSN 761 (21691)
[1010]=4 SUBMARINE SQUADRON 11 (55244)
[1011]=5 ALEXANDRIA SSN 757 (21465)
[1012]=5 SCRANTON SSN 756 (21464)
[1013]=5 HAMPTON SSN 767 (21764)
[1014]=5 ANNAPOLIS SSN 760 (21690)
[1015]=5 ARCO ARDM 5 (20036)
[1016]=5 UNDERSEA RESCUE COMMAND SAN DIEGO (32117)
[1017]=4 SUBMARINE SQUADRON 15 (43709)
[1018]=5 KEY WEST SSN 722 (21101)
[1019]=5 OKLAHOMA CITY SSN 723 (21102)
[1020]=5 TOPEKA SSN 754 (21463)
[1021]=5 ASHEVILLE SSN 758 (21466)
[1022]=4 SUBMARINE GROUP 7 (33174)
[1023]=5 SUBMARINE SQUADRON 21 (42897)
[1024]=4 SUBMARINE GROUP 9 (53885)
[1025]=5 NAVSUBSUPPCEN BANGOR WA (61106)
[1026]=5 SUBMARINE SQUADRON 19 (4280A)
[1027]=6 OHIO SSGN 726 (21036)
[1028]=6 MICHIGAN SSGN 727 (21037)
[1029]=6 MAINE SSBN 741 (21826)
[1030]=5 SUBMARINE SQUADRON 17 (53886)
[1031]=6 HENRY M JACKSON SSBN 730 (21040)
[1032]=6 ALABAMA SSBN 731 (21041)
[1033]=6 NEVADA SSBN 733 (21043)
[1034]=6 PENNSYLVANIA SSBN 735 (21045)
[1035]=6 LOUISIANA SSBN 743 (21861)
[1036]=6 KENTUCKY SSBN 737 (21433)
[1037]=6 NEBRASKA SSBN 739 (21461)
[1038]=4 COMMANDER, UNDERSEA SURVEILLANCE (COMUNDERSEASURV) DAM NECK VA (62853)
[1039]=4 (COMUNDERSEASURV DET SASEBO JA) (62859)
[1040]=4 NAVSUBSUPPCEN PEARL HARBOR HI (44429)
[1041]=4 NAVY DATA CENTER YOKOSUKA (32806)
[1042]=4 (NAVY DATA CENTER DET OKINAWA) (45196)
[1043]=4 PRIORITY MATERIAL OFFICE (MATOFF) BREMERTON (00441)
[1044]=4 (PRIORITY MATOFF DET PEARL HARBOR HI) (44700)
[1045]=(PRIORITY MATOFF DET NORFOLK VA) (45919)
[1046]=(PRIORITY MATOFF DET GROTON CT) (45918)
[1047]=(PRIORITY MATOFF DET MAYPORT FL) (50070)
[1048]=(PRIORITY MATOFF DET KINGS BAY GA) (40415)
[1049]=(PRIORITY MATOFF DET TRAVIS AFB CA) (44454)
[1050]=(PRIORITY MATOFF DET GUAM) (50072)
[1051]=(PRIORITY MATOFF DET SAN DIEGO CA) (46575)
[1052]=(PRIORITY MATOFF DET SIGONELLA IT) (50071)
[1053]=(PRIORITY MATOFF DET BAHRAIN) (50073)
[1054]=(PRIORITY MATOFF DET YOKOSUKA) (3657A)
[1055]=4 COMSUBPAC REP WEST COAST (42474)
[1056]=4 COMSUBPAC SHIPYARD REP PUGET SOUND (33057)
[1057]=4 COMSUBPAC SHIPYARD REP PACNORTHWEST (53885)
[1058]=4 COMSUBPAC SHIPYARD REP PEARL HARBOR (48298)
[1059]=3 COMMANDER, U.S. THIRD FLEET (57087)
[1060]=4 COMMANDER CARRIER STRIKE GROUP (COMCARSTRKGRU)
[1061]=FIFTEEN (09721)#
[1062]=5 COMMANDING OFFICER, TACTICAL TRAINING GROUP PACIFIC (TACTRAGRUPAC) (53996)
[1063]=5 (DIRECTOR, TACTRAGRUPAC DET YOKOSUKA (40434)
[1064]=4 COMCARSTRKGRU ONE (57098)#
[1065]=4 COMCARSTRKGRU THREE (09722)#
[1066]=4 COMCARSTRKGRU SEVEN (09724)#
[1067]=4 COMCARSTRKGRU NINE (55780)#
[1068]=4 COMCARSTRKGRU ELEVEN (55775)#
[1069]=4 COMEXSTRKGRU THREE (52739)#
[1070]=3 COMMANDER, U.S. SEVENTH FLEET (57024)
[1071]=4 COMCARSTRKGRU FIVE (09723)#
[1072]=4 COMEXSTRKGRU SEVEN (55308)# (COMEXSTRKGRU SEVEN DET SASEBO) (31915)
[1073]=4 PATROL AND RECONNAISSANCE WING ONE (09451)
[1074]=4 (COMPATRECONWING ONE DET ATSUGI) (43021)
[1075]=4 (MTOC SIX) (49136)
[1076]=(TOC KADENA) (32515)
[1077]=4 FLEET COORDINATION GROUP (30247)
[1078]=#(COMUSFLTFORCOM/COMPACFLT established a support relationship between the COMCARSTRKGRU/COMEXSTRKGRU commander (supported commander) and the TYCOM (supporting commander). TYCOMs provide ADCON support for units assigned OPCON to a COMCARSTRKGRU/COMEXSTRKGRU. TYCOMs and COMCARSTRKGRU/COMEXSTRKGRU commanders work integrated solutions to achieve unit readiness to meet COMCARSTRKGRU/COMEXSTRKGRU mission requirements.)
[1079]=3 U.S. NAVAL FORCES JAPAN (57006)
[1080]=(The Commander is assigned a "dual hat" as COMMANDER
[1081]=NAVY REGION (COMNAVREG) JAPAN (61076) under
[1082]=COMMANDER, NAVY INSTALLATIONS COMMAND (CNIC) as the
[1083]=Regional Commander.)
[1084]=3 U.S. NAVAL FORCES KOREA (COMNAVFORKOREA) (62894, 37310)
[1085]=(SPLIT LOCATION FOR COMMAND)
[1086]=(The Commander is assigned a "dual hat" as COMNAVREG
[1087]=KOREA (61075) under CNIC as the Regional Commander.) (COMNAVFORKOREA DET COMBINED NAVAL INTELLIGENCE CELL CHINHAE) (45802)
[1088]=(COMNAVFORKOREA NAVY COMPONENT COMMAND DET CHINHAE) (44461)
[1089]=3 U.S. NAVAL FORCES MARIANAS (COMNAVMARIANAS) (57043)
[1090]=(The Commander is assigned a "dual hat" as COMMANDER
[1091]=JOINT REGION MARIANAS (61128) under CNIC as the Regional Commander.) (COMNAVMARIANAS DET CIVIC ACTION TEAM GU) (55520)
[1092]=3 LOGISTIC GROUP WESTPAC (55341)
[1093]=(The commander is assigned a "dual hat" as Commander
[1094]=Singapore Area coordinator (61077) under CNIC.)
[1095]=3 NAVY EXPEDITIONARY COMBAT COMMAND PACIFIC (57046)
[1096]=(The Commander is assigned a dual hat as COMMANDER,
[1097]=NAVY EXPEDITIONARY COMBAT COMMAND (4582A) who serves as
[1098]=lead to coordinate Title 10 programs for NECC Forces
[1099]=under COMUSFLTFORCOM.)
[1100]=4 NAVY EXPEDITIONARY FORCES COMMAND PACIFIC (33710)
[1101]=4 NCG ONE (55752)
[1102]=5 NMCB 3 (55103)
[1103]=5 NMCB 4 (55114)
[1104]=5 NMCB 5 (55115)
[1105]=5 UCT TWO (35233)
[1106]=5 CBMU 303 (55644)
[1107]=5 (CBMU 303 DET PEARL HARBOR) (66648)
[1108]=5 FIRST NCR (81381)
[1109]=6 NMCB 18 (08917)
[1110]=6 NMCB 22 (55531)
[1111]=6 NMCB 25 (08865)
[1112]=5 THREE ZERO NCR (55611)
[1113]=5 (COM THREE ZERO NCR DET OKINAWA) (53882)
[1114]=4 COASTAL RIVERINE GROUP (CORIVGRU) ONE (57092)
[1115]=4 (CORIVGRU ONE DET COMBAT SERVICE SUPPORT) (55886)
[1116]=4 (CORIVGRU ONE DET GUAM) (55887)
[1117]=5 COASTAL RIVERINE SQUADRON ONE (30682)
[1118]=5 COASTAL RIVERINE SQUADRON THREE (3349A)
[1119]=6 CORIVRON THREE MK VI CO ALPHA (36070)
[1120]=7 CORIVRON THREE MK VI CO ALPHA BOAT CREW 1(36072)
[1121]=7 CORIVRON THREE MK VI CO ALPHA BOAT CREW 2(36073)
[1122]=7 CORIVRON THREE MK VI CO ALPHA BOAT CREW 3(36074)
[1123]=6 CORIVRON THREE MK VI CO BRAVO (36071)
[1124]=7 CORIVRON THREE MK VI CO BRAVO BOAT CREW 1(36075)
[1125]=7 CORIVRON THREE MK VI CO BRAVO BOAT CREW 2(36076)
[1126]=7 CORIVRON THREE MK VI CO BRAVO BOAT CREW 3(36077)
[1127]=5 COASTAL RIVERINE SQUADRON ELEVEN (55823)
[1128]=4 EXPLOSIVE ORDNANCE DISPOSAL GROUP ONE (55321)
[1129]=5 EODMU ONE (31968)
[1130]=5 EODESU ONE (82630)
[1131]=5 EOD TRAINING AND EVALUATION UNIT ONE (30202)
[1132]=5 EODMU THREE (55447)
[1133]=5 (EODMU THREE DETACHMENT CHINA LAKE) (30697)
[1134]=5 (EODMU THREE DETACHMENT MDS) (58602)
[1135]=(EODMU THREE DETACHMENT SOUTHWEST) (48176)
[1136]=5 EODMU FIVE (30215)
[1137]=5 (EODMU FIVE DET JAPAN) (30217)
[1138]=5 (EODMU FIVE DET MARIANAS) (30208)
[1139]=5 EODMU ELEVEN (55569)
[1140]=5 (EODMU ELEVEN DETACHMENT BANGOR) (42969)
[1141]=5 (EODMU ELEVEN DETACHMENT FALLON) (30209)
[1142]=(EODMU ELEVEN DETACHMENT NORTHWEST) (30203)
[1143]=(EODMU ELEVEN DETACHMENT MDS) (49974)
[1144]=5 MOBILE DIVING AND SALVAGE UNIT ONE (55550)
[1145]=5 (MOBILE DIVING AND SALVAGE UNIT ONE DET EOD) (32082)
[1146]=3 NAVY MUNITIONS COMMAND PACIFIC (NMCPAC) EAST ASIA DIVISION (EAD) (40629)
[1147]=4 NMCPAC EAD UNIT PEARL HARBOR) (68297)
[1148]=4 NMCPAC EAD UNIT SASEBO (62735)
[1149]=4 NMCPAC EAD UNIT YOKOSUKA (61581)
[1150]=4 (NMCPAC EAD DET ATSUGI) (61583)
[1151]=4 NMCPAC EAD UNIT GUAM (61055)
[1152]=4 NMCPAC EAD UNIT OKINAWA (62254)
[1153]=4 (NMCPAC EAD DET DIEGO GARCIA) (40554)
[1154]=4 NMCPAC EAD UNIT MISAWA (61584)
[1155]=3 NMCPAC CONUS WEST DIVISION (CWD) (40628)
[1156]=(The Commander is assigned a dual hat as Commanding
[1157]=Officer, Naval Weapons Station Seal Beach under UIC 61065.) (NMCPAC CWD DET FALLBROOK) (47618)
[1158]=(NMCPAC CWD DET POINT LOMA) (44943)
[1159]=(NMCPAC CWD DET NORTH ISLAND) (61047)
[1160]=(NMCPAC CWD DET SAN CLEMENTE ISLAND) (61046)
[1161]=(NMCPAC CWD DET LEMOORE) (61059)
[1162]=(NMCPAC CWD DET FALLON) (61052)
[1163]=(NMCPAC CWD DET EL CENTRO) (61051)
[1164]=(NMCPAC CWD DET POINT MUGU) (61063)
[1165]=(NMCPAC CWD DET CHINA LAKE) (40409)
[1166]=(NMCPAC CWD DET WHIDBEY ISLAND) (61048)
[1167]=4 NMCPAC CWD UNIT INDIAN ISLAND (48537)
[1168]=4 NMCPAC CWD UNIT SEAL BEACH (47615)
[1169]=** - SHORE ACTIVITY IN FLEET ADMINISTRATIVE CHAIN OF COMMAND
