[0][0]<>OPNAVINST 5400.45
[1][1]<>STANDARD NAVY DISTRIBUTION LIST
[2][2]<>ADMINISTRATIVE ORGANIZATION OF THE OPERATING FORCES OF
[3][3]<>THE U.S. NAVY
[4][4]<R>1 Apr 2020
[5][5]<>ECHELON CHAIN OF COMMAND
[6][6]<C>1 CHIEF OF NAVAL OPERATIONS (00011)
[7][7]<C>2 CONSTITUTION (U.S. SHIP OF STATE) (REPORTS TO CNO THROUGH THE DIRECTOR, NAVY STAFF) (01024)
[8][8]<C>2 COMMANDER, U.S. NAVAL FORCES EUROPE, COMMANDER,U.S. NAVAL FORCES AFRICA (COMUSNAVEUR, COMUSNAVAF) (00061)
[9][9]<C>2 (COMUSNAVEUR, COMUSNAVAF DETACHMENT (DET) MARITIME ASHORE SUPPORT TEAM (MAST) (47057)
[10][10]<C>3 COMMANDER, U.S. SIXTH FLEET (3818A)
[11][11]<C>3 (COMSIXTHFLT MCM DET ROTA) (40366)
[12][12]<C>4 COMMANDER, TASK FORCE (CTF) 67 (30191)
[13][13]<>(The Commander is dual hatted as Commander, Fleet
[14][14]<>Air Sigonella (UIC 67061) under COMNAVAIRLANT and
[15][15]<>COMUSFLTFORCOM.)
[16][16]<C>5 TOC SIGONELLA (55354)
[17][17]<C>4 CTF 68 (40366)
[18][18]<C>4 CTF 69 (58744)
[19][19]<C>4 CTF 63 (40365)
[20][20]<C>4 CTF 64 (3245B)
[21][21]<C>4 CTF 65 (Dual hat with CDS 60 under CFFC)(3479B)
[22][22]<C>2 OPERATIONAL TEST AND EVALUATION FORCE (57023)
[23][23]<C>2 NAVY RESERVE FORCE (00072)
[24][24]<C>3 NAVY AIR FORCE RESERVE (00071)
[25][25]<C>4 MARITIME SUPPORT WING (00082)
[26][26]<C>5 PATROL SQUADRON (VP) 62 (09162)
[27][27]<C>5 VP 69 (09989)
[28][28]<C>5 HELICOPTER SEA COMBAT SQUADRON (HSC) 85(09061) (09061)
[29][29]<C>5 HELICOPTER MARITIME STRIKE SQUADRON (HSM) 60 (3218A)
[30][30]<C>4 FLEET LOGISTICS SUPPORT WING (FLTLOGSUPPWING) (53831)
[31][31]<C>4 (FLTLOGSUPPWING EXECUTIVE TRANSPORT DET (ETD) PACIFIC) (40425)
[32][32]<M>4 (FLTLOGSUPPWING ETD SIGONELLA (40420)
[33][33]<C>5 FLEET LOGISTICS SUPPORT SQUADRON (VR) 1(42884)
[34][34]<C>5 VR 51 (39501)
[35][35]<C>5 VR 53 (55617)
[36][36]<C>5 VR 54 (52895)
[37][37]<C>5 VR 55 (53855)
[38][38]<C>5 VR 56 (53856)
[39][39]<C>5 VR 57 (53910)
[40][40]<C>5 VR 58 (53911)
[41][41]<C>5 VR 59 (53921)
[42][42]<C>5 VR 61 (08988)
[43][43]<C>5 VR 62 (09324)
[44][44]<C>5 VR 64 (09172)
[45][45]<C>4 TACTICAL SUPPORT WING (09393)
[46][46]<C>5 STRIKE FIGHTER SQUADRON (VFA) 204 (09032)
[47][47]<C>5 ELECTRONIC ATTACK SQUADRON (VAQ) 209 (53870)
[48][48]<C>5 FIGHTER SQUADRON COMPOSITE (VFC) 111 (52923)
[49][49]<C>5 VFC 13 (52995)
[50][50]<C>5 VFC 12 (52994)
[51][51]<C>3 NAVY RESERVE FORCES COMMAND (3447B)
[52][52]<C>2 COMMANDER U.S. NAVAL FORCES CENTRAL COMMAND (COMUSNAVCENT) (57007)
[53][53]<C>3 COMMANDER, U.S. FIFTH FLEET (57045)
[54][54]<C>4 COMDESRON 50 (45193)
[55][55]<C>4 COMLOGFORNAVCENT (09346)
[56][56]<C>4 PATROL AND RECONNAISSANCE WING 57/CTF 57 (44468)
[57][57]<C>4 (TACTICAL OPERATIONS CENTER BAHRAIN) (55618)
[58][58]<C>2 COMMANDER, U.S. NAVAL FORCES SOUTHERN COMMAND (COMNAVSO) (57061)
[59][59]<C>2 (COOPERATIVE SECURITY LOCATION COMALAPA EL SALVADOR) (3146B)
[60][60]<M>2 (COMNAVSO DET INTER-AMERICAN NAVAL TELECOMMUNICATIONS NETWORK) (32112)
[61][61]<C>3 COMDESRON 40 (52811)
[62][62]<C>3 COMMANDER, U.S. FOURTH FLEET (64041)
[63][63]<C>2 COMMANDER, NAVAL SPECIAL WARFARE COMMAND (COMNAVSPECWARCOM) (00074)
[64][64]<C>2 (COMNAVSPECWARCOM DET ANNAPOLIS) (39565)
[65][65]<C>3 COMNAVSPECWAR DEVELOPMENT GROUP DAM NECK (47898)
[66][66]<C>4 NAVAL SPECIAL WARFARE TACTICAL DEVELOPMENT AND EVALUATION SQUADRON ONE (40458)
[67][67]<C>4 NAVAL SPECIAL WARFARE TACTICAL DEVELOPMENT AND EVALUATION SQUADRON TWO (40459)
[68][68]<C>4 NAVAL SPECIAL WARFARE TACTICAL DEVELOPMENT AND EVALUATION SQUADRON THREE (40460)
[69][69]<C>4 NAVAL SPECIAL WARFARE TACTICAL DEVELOPMENT AND EVALUATION SQUADRON FOUR (40461)
[70][70]<C>4 NAVAL SPECIAL WARFARE TACTICAL DEVELOPMENT AND EVALUATION SQUADRON FIVE (40298)
[71][71]<C>4 EXPLOSIVE ORDNANCE DISPOSAL TACTICAL DEVELOPMENT AND EVALUATION SQUADRON (72301)
[72][72]<C>3 NAVAL SPECIAL WARFARE GROUP (NAVSPECWARGRU) ONE (57100)
[73][73]<C>3 (NAVSPECWARGRU ONE DET GUAM (46987)
[74][74]<M>3 (NAVSPECWARGRU ONE DET TRAINING (TRN) (39589)
[75][75]<T>(NAVSPECWARGRU ONE DET BAHRAIN7-31-2021) (39966)
[76][76]<C>4 SEAL TEAM ONE (55777)
[77][77]<C>4 SEAL TEAM THREE (44884)
[78][78]<C>4 SEAL TEAM FIVE (08971)
[79][79]<C>4 SEAL TEAM SEVEN (39591)
[80][80]<C>4 NAVAL SPECIAL WARFARE UNIT (NAVSPECWARUNIT)THREE (DISEST EFF 31 Jul 2021) (39966)
[81][81]<C>4 NAVSPECWARGRU ONE LOGISTICS AND SUPPORT UNIT (LOGSUPPU) (39585)
[82][82]<C>3 NAVAL SPECIAL WARFARE GROUP THREE (55446)
[83][83]<C>3 (NAVSPECWARGRU THREE DET TRN) (34123)
[84][84]<C>4 NAVSPECWARGRU THREE LOGSUPPU (55457)
[85][85]<C>4 SEAL DELIVERY VEHICLE (SDV) TEAM ONE (08973)
[86][86]<C>4 SDV TEAM TWO (08842)
[87][87]<C>3 NAVAL SPECIAL WARFARE GROUP TWO (0031A)
[88][88]<C>3 (NAVSPECWARGRU TWO DET TRN) (39590)
[89][89]<C>3 (NAVSPECWARGRU TWO DET GERMANY) (34122)
[90][90]<C>4 SEAL TEAM TWO (55778)
[91][91]<C>4 SEAL TEAM FOUR (08943)
[92][92]<C>4 SEAL TEAM SIX (53999)
[93][93]<C>4 SEAL TEAM EIGHT (46985)
[94][94]<C>4 SEAL TEAM TEN (39592)
[95][95]<C>4 NAVSPECWARGRU TWO LOGSUPPU (39587)
[96][96]<C>4 NAVSPECWARUNIT TWO (DISEST EFF 31 Jul 2020) (53991)
[97][97]<C>3 NAVAL SPECIAL WARFARE GROUP FOUR (52738)
[98][98]<C>4 SPECIAL BOAT (SPECBOAT) TEAM TWELVE (42221)
[99][99]<C>4 SPECBOAT TEAM TWENTY (44392)
[100][100]<C>4 (SPECBOAT TEAM 20 DET CARIBBEAN) (68975)
[101][101]<C>4 SPECBOAT TEAM TWENTY TWO (32219)
[102][102]<C>3 NAVSPECWARGRU TEN (58063)
[103][103]<C>4 SPECIAL RECONNAISSANCE TEAM (SPECRECON TEAM) ONE (48569)
[104][104]<C>4 SPECRECON TEAM TWO (49660)
[105][105]<C>3 NAVSPECWARGRU ELEVEN (39605)
[106][106]<C>4 SEAL TEAM SEVENTEEN (39943)
[107][107]<C>4 SEAL TEAM EIGHTEEN (39944)
[108][108]<C>2 COMMANDER, NAVAL SEA SYSTEMS COMMAND ** (00024)
[109][109]<C>3 USS GETTYSBURG (CG 64) (21624)
[110][110]<C>3 USS CHOSIN (CG 65) (21625)
[111][111]<C>3 USS VICKSBURG (CG 69) (21684)
[112][112]<C>3 USS CAPE ST GEORGE (CG 71) (21828)
[113][113]<C>3 USS ANZIO (CG 68) (21658)
[114][114]<C>3 HUE CITY (CG 66) (21656)
[115][115]<C>3 COMMANDER, NAVY REGIONAL MAINTENANCE ** (58400)
[116][116]<>CENTER
[117][117]<C>4 COMMANDING OFFICER, MID-ATLANTIC REGIONAL MAINTENANCE CENTER** (50054)
[118][118]<C>5 DYNAMIC (AFDL-6) (14806)
[119][119]<C>2 COMMANDER, U.S. FLEET CYBER COMMAND (00055)
[120][120]<C>3 COMMANDER, U.S. TENTH FLEET (3822A)
[121][121]<C>2 CHIEF, BUREAU OF MEDICINE AND SURGERY ** (00018)
[122][122]<C>3 EXPEDITIONARY MEDICAL FACILITY (EXMEDFAC) DALLAS ONE (84023)
[123][123]<C>3 EXMEDFAC GREAT LAKES ONE (84022)
[124][124]<C>3 EXMEDFAC BETHESDA (50480)
[125][125]<C>3 EXMEDFAC CAMP PENDLETON (50481)
[126][126]<C>2 COMMANDER, U.S. FLEET FORCES COMMAND (COMUSFLTFORCOM) (00060)
[127][127]<C>3 COMCARSTRKGRU FOUR (09577)
[128][128]<C>4 EXPEDITIONARY WARFARE TRAINING GROUP ATLANTIC (63021)
[129][129]<C>4 TACTICAL TRAINING GROUP ATLANTIC (53989)
[130][130]<C>3 COMMANDER, U. S. SECOND FLEET (08961)
[131][131]<I>4 COMMANDER, CARRIER STRIKE GROUP (COMCARSTRKGRU)
[132][132]<>TWO (09576)#
[133][133]<I>4 COMCARSTRKGRU EIGHT (53889)#
[134][134]<I>4 COMCARSTRKGRU TEN (55771)#
[135][135]<I>4 COMCARSTRKGRU TWELVE (0107A)#
[136][136]<I>4 COMMANDER EXPEDITIONARY STRIKE GROUP (COMEXSTRKGRU)
[137][137]<>TWO (55333)#
[138][138]<>#(CCSGs 2, 8, 10, 12 and ESG-2 are designated as Echelon 4 Commands with COMSECONDFLT as the operational Commander, Immediate Superior in Command, reporting senior and first Flag Officer.
[139][139]<C>3 COMMANDER, STANDING NAVY COMBAT ELEMENT (08967)
[140][140]<>#(COMUSFLTFORCOM/COMMANDER, U.S.PACIFIC FLEET (COMPACFLT) established a support relationship between the COMCARSTRKGRU/COMEXSTRKGRU commander (supported commander) and the type commander (TYCOM) (supporting commander). TYCOMs provide administrative command (ADCON) support for units assigned operational command (OPCON) to a COMCARSTRKGRU/COMEXSTRKGRU. TYCOMS and COMCARSTRKGRU/COMEXSTRKGRU commanders work integrated solutions to achieve unit readiness to meet COMCARSTRKGRU/COMEXSTRKGRU mission requirements.)
[141][141]<C>3 COMUSFLTFORCOM MARITIME HOMELAND DEFENSE (MHLD) COMMANDER, ATLANTIC AREA (45550)
[142][142]<C>4 COMUSFLTFORCOM MHLD DISTRICT (DIST) ONE (82241)
[143][143]<C>4 COMUSFLTFORCOM MHLD DIST FIVE (82244)
[144][144]<C>4 COMUSFLTFORCOM MHLD DIST SEVEN (82246)
[145][145]<C>4 COMUSFLTFORCOM MHLD DIST EIGHT (82247)
[146][146]<C>4 COMUSFLTFORCOM MHLD DIST NINE (82248)
[147][147]<C>3 COMMANDER, NAVAL AIR FORCE, ATLANTIC (AIRLANT) (57012)
[148][148]<C>4 EISENHOWER (CVN 69) (03369)
[149][149]<C>4 HARRY S TRUMAN (CVN 75) (21853)
[150][150]<C>4 GEORGE H W BUSH (CVN 77) (23170)
[151][151]<C>4 GERALD R FORD (CVN 78) (23173)
[152][152]<C>4 COMMANDER, CARRIER AIR WING (COMCARAIRWING) ONE (09732)
[153][153]<C>4 COMCARAIRWING THREE (09731)
[154][154]<C>4 COMCARAIRWING SEVEN (09736)
[155][155]<C>4 COMCARAIRWING EIGHT (09748)
[156][156]<C>4 COMMANDER, STRIKE FIGHTER WING ATLANTIC (COMSTRKFIGHTWINGLANT) (09103)
[157][157]<C>4 (COMSTRKFIGHTWINGLANT DETACHMENT NAVAL AVIATION MAINTENANCE CENTER OF EXCELLENCE (NAMCE))(4779A)
[158][158]<C>5 STRIKE FIGHTER WEAPONS SCHOOL ATLANTIC (47084)
[159][159]<C>5 VFA 11 (09560)
[160][160]<C>5 VFA 31 (09473)
[161][161]<C>5 VFA 32 (09053)
[162][162]<C>5 VFA 34 (09070)
[163][163]<C>5 VFA 37 (09478)
[164][164]<C>5 VFA 81 (09221)
[165][165]<C>5 VFA 83 (09223)
[166][166]<C>5 VFA 87 (63922)
[167][167]<C>5 VFA 103 (09718)
[168][168]<C>5 VFA 105 (65183)
[169][169]<C>5 VFA 106 (09679)
[170][170]<C>6 VFA 106 SQUADRON AUGMENT UNIT (SAU) (47570)
[171][171]<C>5 VFA 131 (63934)
[172][172]<C>5 VFA 143 (09281)
[173][173]<C>5 VFA 211 (09086)
[174][174]<C>5 VFA 213 (09934)
[175][175]<C>4 PATROL AND RECONNAISSANCE GROUP (PATRECONGRU) (39555)
[176][176]<C>5 VP 30 (09047)
[177][177]<C>5 PATRECON WING ONE ONE (09461)
[178][178]<C>5 (PATRECONWING ONE ONE DET FLEET SUPPORT UNIT FIVE) (4354A)
[179][179]<C>6 FLEET SUPPORT UNIT ONE (3248B)
[180][180]<C>6 MOBILE TOC (MTOC) THREE (55620)
[181][181]<C>6 VP 5 (09630)
[182][182]<C>6 VP 8 (09661)
[183][183]<C>6 VP 10 (09639)
[184][184]<C>6 VP 16 (09229)
[185][185]<C>6 VP 26 (09610)
[186][186]<C>6 VP 45 (09665)
[187][187]<C>6 VPU 2 (09244)
[188][188]<C>6 (VPU 2 DET KANEOHE (3825A)
[189][189]<C>6 VUP 19 (50470)
[190][190]<C>6 (VUP 19 DET MUGU) (50471)
[191][191]<C>6 (VUP 19 LRE DET 5) (50471)
[192][192]<M>6 (VUP 19 LRE DET 7) (50570)
[193][193]<C>6 MTOC ONE (55619)
[194][194]<C>6 MTOC FIVE (3695A)
[195][195]<C>6 MTOC SEVEN (55637)
[196][196]<C>6 MTOC NINE (55352)
[197][197]<C>6 MTOC ELEVEN (55353)
[198][198]<C>6 TOC JACKSONVILLE (35380)
[199][199]<C>4 HELICOPTER MARITIME STRIKE WING ATLANTIC (HELMARSTRKWINGLANT) (55212)
[200][200]<C>5 HELICOPTER MARITIME STRIKE WEAPONS SCHOOL ATLANTIC (32417)
[201][201]<C>5 HELICOPTER MARITIME STRIKE SQUADRON (HSM) 40(53912)
[202][202]<C>5 (HSM 40 DET AIRLANT SEARCH AND RESCUS EVAL UNIT) (48905)
[203][203]<C>5 HSM 72 (55145)
[204][204]<C>5 HSM 74 (55147)
[205][205]<C>5 HSM 46 (55149)
[206][206]<C>5 HSM 48 (55151)
[207][207]<C>5 HSM 70 (09884)
[208][208]<C>4 HELICOPTER SEA COMBAT WING ATLANTIC (HELSEACOMBATWINGLANT) (44890)
[209][209]<C>5 HELICOPTER SEA COMBAT WEAPONS SCHOOL ATLANTIC (48097)
[210][210]<C>5 HELICOPTER SEA COMBAT SQUADRON (HSC) 11 (09954)
[211][211]<C>5 HSC 5 (09488)
[212][212]<C>5 HSC 7 (09988)
[213][213]<C>5 HSC 2 (09212)
[214][214]<C>5 HSC 9 (09163)
[215][215]<C>5 HSC 22 (09846)
[216][216]<C>5 HSC 26 (0381A)
[217][217]<C>5 HSC 28 (55218)
[218][218]<C>5 HELICOPTER MINE COUNTERMEASURES SQUADRON (HM) 14 (53827)
[219][219]<C>5 HM 15 (55201)
[220][220]<C>5 HM 12 (09206)
[221][221]<C>4 AIR TEST AND EVALUATION SQUADRON (VX) ONE (55600)
[222][222]<C>4 COMFAIRSIG (67061)
[223][223]<M>(The Commander is dual hatted as CTF 67 (UIC 30191) under Commander, U. S. Sixth Fleet and COMUSNAVEUR/NAVAF.) (COMFAIRSIG DET ASD) (67022)
[224][225]<T>(COMFAIRSIG DET AIMD) (44330)
[225][226]<C>4 FLEET AREA CONTROL AND SURVEILLANCE FACILITY (FACSFAC) JACKSONVILLE (53895)
[226][227]<C>4 FACSFAC VIRGINIA CAPES OCEANA VA (42239)
[227][228]<C>4 SURFACE NUCLEAR PROPULSION MOBILE TRAINING TEAM NORFOLK (47301)
[228][229]<C>4 LANDING SIGNALS OFFICER SCHOOL (68788)
[229][230]<C>3 COMMANDER, NAVAL SURFACE FORCE, ATLANTIC (CNSL) (53825)
[230][231]<C>3 (CNSL FORWARD DEPLOYED NAVAL FORCE TRAINING DET)(54101)
[231][232]<C>4 LEYTE GULF (GUIDED MISSILE CRUISER) CG 55 (21388)
[232][233]<C>4 SAN JACINTO CG 56 (21389)
[233][234]<C>4 PHILIPPINE SEA CG 58 (21429)
[234][235]<C>4 NORMANDY CG 60 (21449)
[235][236]<C>4 MONTEREY CG 61 (21450)
[236][237]<C>4 VELLA GULF CG 72 (21829)
[237][238]<C>4 GETTYSBURG CG 64 (21624)
[238][239]<C>4 LEWIS B PULLER ESB 3 (70027)
[239][240]<C>4 WASP LHD 1 (23168)
[240][241]<C>4 COMDESRON TWO (39789)
[241][242]<C>5 WINSTON S CHURCHILL (GUIDED MISSILE DESTROYER) DDG 81 (21955)
[242][243]<C>5 MITSCHER DDG 57 (21687)
[243][244]<C>5 NITZE DDG 94 (23147)
[244][245]<C>5 MASON DDG 87 (22995)
[245][246]<C>5 GONZALEZ DDG 66 (21833)
[246][247]<C>5 BAINBRIDGE DDG 96 (23153)
[247][248]<C>4 COMNAVSURFRON ONE FOUR (55273)
[248][249]<C>5 LASSEN DDG 82 (21956)
[249][250]<C>5 THOMAS HUDNER DDG 116 (50137)
[250][251]<C>5 PAUL IGNATIUS DDG 117 (50186)
[251][252]<C>5 FARRAGUT DDG 99 (23150)
[252][253]<C>5 THE SULLIVANS DDG 68 (21942)
[253][254]<C>5 SHAMAL (PATROL CRAFT) PC 13 (22147)
[254][255]<C>5 ZEPHYR PC 8 (21929)
[255][256]<C>5 TORNADO PC 14 (23156)
[256][257]<C>4 COMDESRON TWO TWO (0131A)
[257][258]<C>5 MAHAN DDG 72 (21946)
[258][259]<C>5 COLE DDG 67 (21941)
[259][260]<C>5 LABOON DDG 58 (21820)
[260][261]<C>4 COMDESRON TWO SIX (0135A)
[261][262]<C>5 OSCAR AUSTIN DDG 79 (21953)
[262][263]<C>5 MCFAUL DDG 74 (21948)
[263][264]<C>5 STOUT DDG 55 (21685)
[264][265]<C>5 TRUXTUN DDG 103 (23165)
[265][266]<C>5 JAMES E WILLIAMS DDG 95 (23148)
[266][267]<C>4 COMDESRON TWO EIGHT (39791)
[267][268]<C>5 JASON DUNHAM DDG 109 (55685)
[268][269]<C>5 GRAVELY DDG 107 (23164)
[269][270]<C>5 BULKELEY DDG 84 (22992)
[270][271]<C>5 ARLEIGH BURKE DDG 51 (21487)
[271][272]<C>5 FORREST SHERMAN DDG 98 (23149)
[272][273]<C>5 FARRAGUT DDG 99 (23150)
[273][274]<C>5 RAMAGE DDG 61 (21823)
[274][275]<C>5 DELBERT D BLACK DDG 119 (50400)
[275][276]<C>4 COMDESRON SIX ZERO (Dual hat as CTF 65 under NAVEUR/NAVAF) (55699)
[276][277]<C>5 ROOSEVELT DDG 80 (21954)
[277][278]<C>5 DONALD COOK DDG 75 (21949)
[278][279]<C>5 ROSS DDG 71 (21945)
[279][280]<C>5 PORTER DDG 78 (21952)
[280][281]<C>5 CARNEY DDG 64 (21923)
[281][282]<>(To Mayport FL and SURFRON 14 EFF 30 Apr 2020)
[282][283]<C>4 MOUNT WHITNEY (AMPHIBIOUS COMMAND SHIP) LCC 20 (20001)
[283][284]<C>4 NEW YORK (AMPHIBIOUS TRANSPORT DOCK) LPD 21 (3013A)
[284][285]<C>4 MESA VERDE LPD 19 (32421)
[285][286]<C>4 WASP (LANDING HELICOPTER DOCK) LHD 1 (21560)
[286][287]<C>4 SAN ANTONIO LPD 17 (07207)
[287][288]<C>4 KEARSARGE LHD 3 (21700)
[288][289]<C>4 BATAAN LHD 5 (21879)
[289][290]<C>4 IWO JIMA LHD 7 (23027)
[290][291]<C>4 ARLINGTON LPD 24 (23180)
[291][292]<C>4 COMMANDER, AMPHIBIOUS SQUADRON (COMPHIBRON) FOUR (55336)
[292][293]<C>5 FLTSURGTEAM (FLTSURGTEAM) 4 (47421)
[293][294]<C>5 CARTER HALL (DOCK LANDING SHIP)LSD 50 (21880)
[294][295]<C>5 GUNSTON HALL LSD 44 (21422)
[295][296]<C>5 TORTUGA LSD 46 (21562)
[296][297]<C>4 COMPHIBRON SIX (55337)
[297][298]<C>5 FLEET SURGICAL TEAM 2 (47419)
[298][299]<C>5 FLTSURGTEAM 8 (39846)
[299][300]<C>5 FORT MCHENRY LSD 43 (21400)
[300][301]<C>5 WHIDBEY ISLAND LSD 41 (21218)
[301][302]<C>4 COMPHIBRON EIGHT (55338)
[302][303]<C>5 FLTSURGTEAM 6 (49342)
[303][304]<C>5 OAK HILL LSD 51 (21958)
[304][305]<C>4 NAVAL BEACH GROUP 2 (57067)
[305][306]<C>5 ASSAULT CRAFT UNIT (ACU) TWO (53210)
[306][307]<C>5 ACU FOUR (45472)
[307][308]<C>5 BEACH MASTSER UNIT (BMU) TWO (53211)
[308][309]<C>5 AMPHIBIOUS CONSTRUCTION BATTALION (PHIBCB) TWO (55105)
[309][310]<C>4 TACTICAL AIR CONTROL SQUADRON (TACRON) VTC 21 (09807)
[310][311]<C>4 VTC 22 (09812)
[311][312]<C>4 LITTORAL COMBAT SHIP SQUADRON (LCSRON) TWO (41145)
[312][313]<C>5 SURFACE DIVISION TWO ONE (36047)
[313][314]<C>6 MILWAUKEE LCS 5 (20134)
[314][315]<C>6 DETROIT LCS 7 (20136)
[315][316]<C>6 LITTLE ROCK LCS 9 (20138)
[316][317]<C>6 SIOUX CITY LCS 11 (20140)
[317][318]<C>5 MINE DIVISION TWO TWO (4736A)
[318][319]<C>6 WICHITA LCS 13 (20142)
[319][320]<C>6 BILLINGS LCS 15 (20096)
[320][321]<C>6 INDIANAPOLIS LCS 17 (20155)
[321][322]<C>6 ST LOUIS LCS 19 (20157)
[322][323]<C>5 MINNEAPOLIS ST PAUL LCS 21 (20159)
[323][324]<C>5 COOPERSTOWN LCS 23 (20161)
[324][325]<C>5 (PCU MARINETTE LCS 25) (20169)
[325][326]<C>5 (PCU NANTUCKET LCS 27) (20171)
[326][327]<C>5 (PCU BELOIT LCS 29) (20173)
[327][328]<C>5 (PCU CLEVELAND LCS 31) (20260)
[328][329]<C>4 NAVSURFRON FIVE (40278)
[329][330]<C>5 SENTRY MCM 3 (21404)
[330][331]<C>5 DEVASTATOR MCM 6 (21427)
[331][332]<C>5 GLADIATOR MCM 11 (21454)
[332][333]<C>5 DEXTROUS MCM 13 (21901)
[333][334]<C>5 TEMPEST PC 2 (21931)
[334][335]<C>5 HURRICANE PC 3 (21932)
[335][336]<C>5 MONSOON PC 4 (21925)
[336][337]<C>5 TYPHOON PC 5 (21926)
[337][338]<C>5 SIROCCO PC 6 (21927)
[338][339]<C>5 SQUALL PC 7 (21928)
[339][340]<C>5 CHINOOK PC 9 (22143)
[340][341]<C>5 FIREBOLT PC 10 (22144)
[341][342]<C>5 WHIRLWIND PC 11 (22145)
[342][343]<C>5 THUNDERBOLT PC 12 (22146)
[343][344]<C>4 COMMANDER, AFLOAT TRAINING GROUP ATLANTIC (COMAFLOATRAGRULANT) (0022A)
[344][345]<C>5 AFLOATRAGRU NORFOLK (30733)
[345][346]<C>5 AFLOATRAGRU MAYPORT (30734)
[346][347]<C>3 COMMANDER, SUBMARINE FORCE, ATLANTIC (57016)
[347][348]<M>3 (The Commander is also designated as Commander, Submarine Forces (COMSUBFOR), the Navys lead for the Undersea Warfare Enterprise (UWE)) (69295)
[348][349]<C>4 COMMANDER, SUBMARINE GROUP TWO (0010A)
[349][350]<C>5 SUBLANT SHIPYARD REPRESENTATIVE (REP) NEWPORT NEWS VA (4318A)
[350][351]<C>5 SUBLANT SHIPYARD REP GROTON CT (48518)
[351][352]<C>5 SUBLANT SHIPYARD REP PORTSMOUTH NH (41906)
[352][353]<C>5 SUBLANT SHIPYARD REP PORTSMOUTH VA (44436)
[353][354]<C>5 NAVAL SUBMARINE SUPPORT CENTER (NAVSUBSUPPCEN) GROTON (31610)
[354][355]<C>5 REGIONAL SUPPORT GROUP (REGSUPPGRU) GROTON (40018)
[355][356]<C>6 NAVAL SUBMARINE SUPPORT FACILITY (NAVSUBSUPFAC) NEW LONDON ** (68316)
[356][357]<C>6 SUBMARINE TECHNICAL SUPPORT CENTER (SUBTECHSUPCEN) (0034A)
[357][358]<C>4 SUBMARINE SQUADRON 12 (55727)
[358][359]<C>5 TOLEDO (ATTACK SUBMARINE) SSN 769 (21807)
[359][360]<C>5 SAN JUAN SSN 751 (21312)
[360][361]<C>5 PROVIDENCE SSN 719 (21029)
[361][362]<C>5 NEW MEXICO SSN 779 (23183)
[362][363]<C>5 HARTFORD SSN 768 (21806)
[363][364]<C>5 CALIFORNIA SSN 781 (20079)
[364][365]<C>5 DELAWARE SSN 791 (27153)
[365][366]<C>4 SUBMARINE SQUADRON 4 (55729)
[366][367]<C>5 MINNESOTA SSN 783 (20034)
[367][368]<C>5 NORTH DAKOTA SSN 784 (20037)
[368][369]<C>5 MONTPELIER SSN 765 (21762)
[369][370]<C>5 COLORADO SSN 788 (27150)
[370][371]<C>5 INDIANA SSN 789 (27151)
[371][372]<C>5 VIRGINIA SSN 774 (23013)
[372][373]<C>5 SOUTH DAKOTA SSN 790 (27152)
[373][374]<C>5 DELAWARE SSN 791 (27153)
[374][375]<C>4 SUBMARINE SQUADRON 6 (55730)
[375][376]<C>5 ALBANY SSN 753 (21462)
[376][377]<C>5 NEWPORT NEWS SSN 750 (21411)
[377][378]<>(To Groton, CT and CSR 4 EFF 1 SEP 2020)
[378][379]<C>5 BOISE SSN 764 (21761)
[379][380]<C>5 HELENA SSN 725 (21367)
[380][381]<C>5 JOHN WARNER SSN 785 (20038)
[381][382]<C>5 WASHINGTON SSN 787 (20182)
[382][383]<C>5 SAN FRANCISCO SSN 711 (20887)
[383][384]<>(Into MTS CONVERSION 15 Nov 2016)
[384][385]<C>5 NEW HAMPSHIRE SSN 778 (23172)
[385][386]<C>5 PASADENA SSN 752 (21413)
[386][387]<C>5 NEW MEXICO SSN 779 (23183)
[387][388]<C>5 COMMANDER, ANTI-SUBMARINE WARFARE FORCES WESTERN ATLANTIC (COMASWFORWESTLANT) (31834)
[388][389]<C>4 SUBMARINE GROUP 8 (55782)
[389][390]<C>5 SUBGRU 8 REP NORTHWOOD UK (30751)
[390][391]<C>4 SUBMARINE GROUP 10 (55241)
[391][392]<C>5 SUBSUPPCEN KINGS BAY (61107)
[392][393]<C>5 TRIDENT REFIT FACILITY ** (44466)
[393][394]<C>5 SUBMARINE SQUADRON 16 (55432)
[394][395]<C>6 FLORIDA (GUIDED MISSILE SUBMARINE) SSGN 728 (21038)
[395][396]<C>6 GEORGIA SSGN 729 (21039)
[396][397]<C>6 WYOMING SSBN 742 (21846)
[397][398]<>(To Kings Bay, GA and SUBRON 20 1 Jun 2020)
[398][399]<C>5 SUBMARINE SQUADRON 20 (63976)
[399][400]<C>6 TENNESSEE (FLEET BALLISTIC MISSILE SUBMARINE) SSBN 734 (21044)
[400][401]<C>6 ALASKA SSBN 732 (21042)
[401][402]<C>6 WEST VIRGINIA SSBN 736 (21365)
[402][403]<C>6 MARYLAND SSBN 738 (21460)
[403][404]<C>6 RHODE ISLAND SSBN 740 (21682)
[404][405]<C>3 COMMANDER, NAVY EXPEDITIONARY COMBAT COMMAND (4582A)
[405][406]<C>4 NAVY EXPEDITIONARY INTELLIGENCE COMMAND (NAVEXINTCOM) (33800)
[406][407]<C>4 (NAVEXINTCOM DET DAM NECK) (40623)
[407][408]<C>4 NAVAL EXPEDITIONARY COMBAT FORCES EURAF (4974A)
[408][409]<C>4 COMMANDER, COASTAL RIVERINE GROUP (CORIVGRU) TWO (4365A)
[409][410]<C>4 (CORIVGRU TWO DET CSS) (55889)
[410][411]<M>4 (CORIVGRU TWO DET BAHRAIN) (3521B)
[411][412]<C>5 CORIV SQUADRON (CORIVRON) TWO (3371B)
[412][413]<C>6 CORIVRON TWO MK VI COMPANY ALPHA (36080)
[413][414]<C>7 CORIVRON TWO MK VI COMP ALPHA BOAT CREW 1(36087)
[414][415]<C>7 CORIVRON TWO MK VI COMP ALPHA BOAT CREW 2(36088)
[415][416]<C>7 CORIVRON TWO MK VI COMP ALPHA BOAT CREW 3(36089)
[416][417]<C>6 CORIVRON TWO MK VI COMPANY BRAVO (36081)
[417][418]<C>7 CORIVRON TWO MK VI COMP BRAVO BOAT CREW 1(36090)
[418][419]<C>7 CORIVRON TWO MK VI COMP BRAVO BOAT CREW 2(36091)
[419][420]<C>7 CORIVRON TWO MK VI COMP BRAVO BOAT CREW 3(36092)
[420][421]<C>5 CORIVRON FOUR (30671)
[421][422]<C>6 CORIVRON FOUR MK VI COMPANY ALPHA (36082)
[422][423]<C>7 CORIVRON FOUR MK VI COMP ALPHA BOAT CREW 1(36093)
[423][424]<C>7 CORIVRON FOUR MK VI COMP ALPHA BOAT CREW 2(36094)
[424][425]<C>7 CORIVRON FOUR MK VI COMP ALPHA BOAT CREW 3(36095)
[425][426]<C>6 CORIVRON FOUR MK VI COMPANY BRAVO (36083)
[426][427]<C>7 CORIVRON FOUR MK VI COMP BRAVO BOAT CREW 1(36096)
[427][428]<C>7 CORIVRON FOUR MK VI COMP BRAVO BOAT CREW 2(36097)
[428][429]<C>7 CORIVRON FOUR MK VI COMP BRAVO BOAT CREW 3(36098)
[429][430]<C>5 CORIVRON EIGHT (30665)
[430][431]<C>5 CORIVRON TEN (30667)
[431][432]<C>4 NAVAL CONSTRUCTION GROUP (NCG) TWO (55460)
[432][433]<C>5 UNDER WATER CONSTRUCTION TEAM (UCT) ONE (30121)
[433][434]<C>5 NAVY MOBILE CONSTRUCTION BATTALION (NMCB) 1 (55101)
[434][435]<C>5 (NMCB ONE DET TWO) (66687)
[435][436]<C>5 NMCB 11 (4608A)
[436][437]<C>5 NMCB 133 (55451)
[437][438]<I>5 CONSTRUCTION BATTALION MAINTENANCE UNIT (CBMU)
[438][439]<C>202 (55643)
[439][440]<C>202 (CBMU 202 DET JACKSONVILLE) (66671)
[440][441]<C>5 SEVENTH NAVAL CONSTRUCTION REGIMENT (NCR) (81387)
[441][442]<C>6 NMCB 27 (08867)
[442][443]<C>6 NMCB 14 (08913)
[443][444]<C>5 TWO TWO NCR (55614)
[444][445]<C>5 (COMMANDER TWO TWO NCR DET EUROPE) (41908)
[445][446]<C>4 COMMANDER, NAVY EXPEDITIONARY LOGISTICS SUPPORT GROUP (COMNAVELSG) (81464)
[446][447]<C>5 FIRST NAVY EXPEDITIONARY LOGISTICS REGIMENT (NAVEXPLOGREG) (66895)
[447][448]<C>6 NAVY CARGO HANDLING BATTALION (NAVCARGOBN) ONE (55132)
[448][449]<C>5 SECOND NAVEXPLOGREG (82215)
[449][450]<C>6 NAVCARGOBN TEN (40378)
[450][451]<C>6 NAVCARGOBN EIGHT (81203)
[451][452]<C>5 FOURTH NAVEXPLOGREG (49423)
[452][453]<C>6 NAVCARGOBN ELEVEN (82216)
[453][454]<C>6 NAVCARGOBN THIRTEEN (82218)
[454][455]<C>5 FIFTH NAVEXPLOGREG (42716)
[455][456]<C>6 NAVCARGOBN FIVE (81125)
[456][457]<C>6 NAVCARGOBN FOURTEEN (82219)
[457][458]<C>4 EXPLOSIVE ORDNANCE DISPOSAL (EOD) GROUP 2 (55322)
[458][459]<C>5 EOD TECHNICAL UNIT 2 (43505)
[459][460]<C>5 MOBILE DIVING AND SALVAGE UNIT (MOBDIVSALU) TWO (42838)
[460][461]<C>5 EOD MOBILE UNIT (MU) 2 (43504)
[461][462]<C>5 (EODMU 2 DET CRANE) (30702)
[462][463]<C>5 (EODMU 2 DET NORFOLK) (45682)
[463][464]<M>5 (EODMU 2 DET YORKTOWN) (30720)
[464][465]<C>5 EODMU 6 (55238)
[465][466]<C>5 (EODMU 6 DET KINGS BAY) (42970)
[466][467]<C>5 (EODMU 6 DET MAYPORT) (42038)
[467][468]<M>5 (EODMU 6 DET PANAMA CITY) (30712)
[468][469]<C>5 EODMU 8 (55568)
[469][470]<C>5 (EODMU 8 DET ROTA) (30715)
[470][471]<C>5 EODMU 12 (43973)
[471][472]<C>5 (EODMU 12 DET DAHLGREN) (30703)
[472][473]<C>5 (EODMU 12 DET EARLE) (30704)
[473][474]<M>5 (EODMU 12 DET NEWPORT) (30713)
[474][475]<C>5 EOD EXPEDITIONARY SUPPORT UNIT (ESU) 2 (4068A)
[475][476]<C>4 NAVY EXPEDITIONARY COMBAT FORCES CENTRAL BAHRAIN (49715)
[476][477]<C>3 NAVY MUNITIONS COMMAND ATLANTIC (NMCLANT) (47616)
[477][478]<C>3 (NMCLANT DET OCEANA) (31279)
[478][479]<C>3 (NMCLANT DET KEY WEST) (61167)
[479][480]<M>3 (NMCLANT DET YORKTOWN) (00109)
[480][481]<T>(NMCLANT DET JACKSONVILLE) (61166)
[481][482]<T>(NMCLANT DET EARLE) (60478)
[482][483]<T>(NMCLANT DET MAYPORT) (61045)
[483][484]<T>(NMCLANT DET FORT WORTH) (61163)
[484][485]<T>(NMCLANT DET NEW ORLEANS) (61164)
[485][486]<T>(NMCLANT DET SIGONELLA) (50200)
[486][487]<T>(NMCLANT DET ROTA) (50201)
[487][488]<T>(NMCLANT DET SOUDA BAY) (50202)
[488][489]<T>(NMCLANT DET BAHRAIN) (50203)
[489][490]<T>(NMCLANT DET PATUXENT RIVER) (61168)
[490][491]<C>4 NMCLANT UNIT CHARLESTON (00193)
[491][492]<C>4 NMCLANT UNIT NORFOLK (30300)
[492][493]<C>3 COMMANDER, MILITARY SEALIFT COMMAND (COMSC) (NAVY WORKING CAPITAL FUND (NWCF), NORFOLK, VA (00033)
[493][494]<C>3 (MSC DET U S MERCHANT MARINE ACADEMY) (50191)
[494][495]<M>3 (MSC DET PACIFIC) (45786)
[495][496]<C>4 COMFORT MEDICAL TREATMENT FACILITY (MTF) REDUCED OPERATING STATUS (ROS) (52451)
[496][497]<C>4 MERCY MTF ROS (52450)
[497][498]<C>4 COMMANDER MARITIME PRE-POSITIONING SHIP SQUADRON (COMPSRON) TWO (45702)
[498][499]<C>4 COMPSRON THREE (46404)
[499][500]<C>4 AMPHIBIOUS COMMAND SHIP (LCC) 20 USS MOUNT WHITNEY (HYBRID CREW) CIVMAR(23754)
[500][501]<C>4 MSC TAGOS PROJECT OFFICE (46077)
[501][502]<C>5 PCU T-AO 205 USNS JOHN LEWIS (21667)
[502][503]<C>5 PCU T-AO 206 USNS HARVEY MILK (21021)
[503][504]<C>5 PCU T-AO 207 USNS EARL WARREN (21012)
[504][505]<C>5 PCU T-A0 208 USNS ROBERT KENNEDY (29995)
[505][506]<C>5 PCU T-AO 209 USNS LUCY STONE (29996)
[506][507]<C>5 PCU T-AO 210 USNS SOJOURNER TRUTH (2999C)
[507][508]<C>4 COMSC LANT NORFOLK (62385)
[508][509]<C>4 (MSC LANT DET EARLE) (4381A)
[509][510]<C>5 MSC REP PORT CANAVERAL (0308A)
[510][511]<C>5 MSC REP CHARLESTON (68779)
[511][512]<C>5 MSC REP SOUTHPORT (30817)
[512][513]<C>5 MSC REP BEAUMONT (62527)
[513][514]<C>5 MSCLANT OPERATIONAL SUPPORT ELEMENT (OPSUPE)(41083)
[514][515]<C>5 HIGH SPEED TRANSPORT (HST) 2 FORMER HI SUPERFERRY ALAKAI (PRE-DELIVERY (PREDEL)) (24047)
[515][516]<C>5 EXPEDITIONARY FAST TRANSPORT (T-EPF) 1 USNS SPEARHEAD (29784)
[516][517]<C>5 T-EPF 10 USNS BURLINGTON (29793)
[517][518]<C>5 T-EPF 12 (PREDEL) USNS NEWPORT (29795)
[518][519]<C>5 EXPEDITIONARY SEA BASE (ESB) 4 USNS HERSHEL W WILLIAMS CIVMAR (24305)
[519][520]<C>5 CONTAINER SHIP (T-AK) 3005 UNITED STATES NAVAL SHIP (USNS) SGT MATEJ KOCAK (21547)
[520][521]<C>5 T-AK 3006 USNS PFC EUGENE A OBREGON (21513)
[521][522]<C>5 T-AK 3007 USNS MAJ STEPHEN W PLESS (21631)
[522][523]<C>5 T-AK 3015 USNS 1ST LT HARRY L MARTIN (23005)
[523][524]<C>5 T-AK 3016 USNS LCPL ROY M WHEAT (23068)
[524][525]<C>5 DRY CARGO/AMMUNITION (T-AKE) 5 USNS ROBERT E PEARY (23195)
[525][526]<C>5 T-AKE 12 USNS WILLIAM MCLEAN (29001)
[526][527]<C>5 T-AKE 13 USNS MEDGAR EVERS (29002)
[527][528]<C>5 FLEET REPLENISHMENT OILER (T-AO) 188 USNS JOSHUA HUMPHREYS (21419)
[528][529]<I>5 T-AO 189 USNS JOHN LENTHALL (21377
[529][530]<C>5 T-AO 195 USNS LEROY GRUMMAN (21525)
[530][531]<C>5 T-AO 196 USNS KANAWHA (21581)
[531][532]<C>5 T-AO 198 USNS BIG HORN (21621)
[532][533]<C>5 T-AO 201 USNS PATUXENT (21857)
[533][534]<C>5 T-AO 203 USNS LARAMIE (21870)
[534][535]<C>5 FAST COMBAT SUPPORT (T-AOE) 6 USNS SUPPLY (21839)
[535][536]<C>5 T-AOE 8 USNS ARCTIC (21907)
[536][537]<C>5 FLEET OCEAN TUG (T-ATF) 172 USNS APACHE (21091)
[537][538]<C>5 HOSPITAL SHIP (T-AH) 20 USNS COMFORT (21637)
[538][539]<C>5 OCEANOGRAPHIC SURVEY SHIP (T-AGS) 60 USNS PATHFINDER (21904)
[539][540]<C>5 T-AGS 66 USNS MAURY (10544)
[540][541]<C>5 T-AGS 45 USNS WATERS (21903)
[541][542]<C>5 SUBMARINE AND SPECIAL WARFARE SUPPORT (SSV) MOTOR VESSEL (MV) DOLORES CHOUEST (40878)
[542][543]<C>5 MV WESTWIND (24014)
[543][544]<C>5 MV BLACK POWDER (24015)
[544][545]<C>5 T-AKR 295 USNS SHUGHART (22241)
[545][546]<C>5 T-AKR 296 USNS GORDON (22242)
[546][547]<C>5 T-AKR 297 USNS YANO (22243)
[547][548]<C>5 T-AKR 298 USNS GILLILAND (22244)
[548][549]<C>5 T-AKR 303 USNS MENDONCA (22249)
[549][550]<C>5 T-AKR 305 USNS BRITTIN (22251)
[550][551]<C>5 T-AKR 310 USNS WATSON (22256)
[551][552]<C>4 COMSC EUROPE AFRICA (EURAF) NAPLES (62537)
[552][553]<C>5 MSC SHIP SUPPORT UNIT (SSU) NAPLES (40444)
[553][554]<C>5 T-EPF 5 USNS TRENTON (29788)
[554][555]<C>5 T-EPF 7 USNS CARSON CITY (29790)
[555][556]<C>5 T-EPF 8 USNS YUMA (29791)
[556][557]<C>4 COMSC CENTRAL COMMAND (CENT) BAHRAIN (68953)
[557][558]<C>5 MSC SSU BAHRAIN (40448)
[558][559]<C>5 T-AKE 3 USNS ALAN SHEPARD (23193)
[559][560]<C>5 T-ATF 168 USNS CATAWBA (21015)
[560][561]<C>5 T-AGS 64 USNS BRUCE C HEEZEN (23131)
[561][562]<C>5 T-EPF 2 USNS CHOCTAW COUNTY (29785)
[562][563]<C>4 COMSC PAC SAN DIEGO (62386)
[563][564]<C>5 MSC SSU SAN DIEGO (40443)
[564][565]<C>5 MSC REP PEARL HARBOR (62402)
[565][566]<C>5 MSC REPRESENTATIVE PUGET SOUND (62384)
[566][567]<C>5 EXPEDITIONARY TRANSFER DOCK (ESD) 2 USNS JOHN GLENN (41037)
[567][568]<C>5 T-AKE 7 USNS CARL BRASHEAR (23197)
[568][569]<C>5 T-AKE 8 USNS WALLY SCHIRRA (23198)
[569][570]<C>5 T-AKE 9 USNS MATTHEW PERRY (23199)
[570][571]<C>5 T-AKE 10 USNS CHARLES DREW (23602)
[571][572]<C>5 T-AKR 300 USNS BOB HOPE (22246)
[572][573]<C>5 T-AKR 301 USNS FISHER (22247)
[573][574]<C>5 T-AKR 306 USNS BENAVIDEZ (22252)
[574][575]<C>5 T-AO 187 USNS HENRY J KAISER (21307)
[575][576]<C>5 T-AO 200 USNS GUADALUPE (21856)
[576][577]<C>5 T-AO 202 USNS YUKON (21869)
[577][578]<C>5 T-ATF 171 USNS SIOUX (21090)
[578][579]<C>5 T-AH 19 USNS MERCY (21636)
[579][580]<C>5 SSV MV C-COMMANDO (23379)
[580][581]<C>5 MV ARROWHEAD (24013)
[581][582]<C>5 MV EAGLEVIEW (24016)
[582][583]<C>5 MV SPECIAL WARFARE SUPPORT (HOS) DOMINATOR (24102)
[583][584]<C>5 MV MALAMA (32205)
[584][585]<C>5 SPECIAL MISSION TEST (SBX-1) (24133)
[585][586]<C>5 T-EPF 9 USNS CITY OF BISMARCK (29792)
[586][587]<C>5 T-ARS 51 USNS GRASP (21467)
[587][588]<C>4 COMSC FAR EAST SINGAPORE (62461)
[588][589]<C>5 MSC OFFICE KOREA WCF (0319A)
[589][590]<C>5 MSCO OKINAWA WCF (0318A)
[590][591]<C>5 MSC SSU JAPAN (40447)
[591][592]<C>5 MSC SSU GUAM (40446)
[592][593]<C>5 MSC SSU SINGAPORE (40445)
[593][594]<C>5 ESD 1 USNS MONTFORD POINT (41036)
[594][595]<C>5 T-ARS 51 USNS SALVOR (21468)
[595][596]<C>5 T-AKE 1 USNS LEWIS AND CLARK (23191)
[596][597]<C>5 T-AKE 2 USNS SACAGAWEA (23192)
[597][598]<C>5 T-AKE 4 USNS RICHARD E BYRD (23194)
[598][599]<C>5 T-AKE 6 USNS AMELIA EARHART (23196)
[599][600]<C>5 T-AKE 11 USNS WASHINGTON CHAMBERS (23726)
[600][601]<C>5 T-AKE 14 USNS CESAR CHAVEZ (29003)
[601][602]<C>5 T-AO 193 USNS WALTER S DIEHL (21579)
[602][603]<C>5 T-AO 194 USNS JOHN ERICSSON (21524)
[603][604]<C>5 T-AO 197 USNS PECOS (21582)
[604][605]<C>5 T-AO 199 USNS TIPPECANOE (21622)
[605][606]<C>5 T-AO 204 USNS RAPPAHANNOCK (21871)
[606][607]<C>5 CABLE LAYING/REPAIR SHIP (T-ARC) 7 USNS ZEUS(21323)
[607][608]<C>5 OCEAN SURVEILLANCE SHIP (T-AGOS) 19 USNS VICTORIOUS (21814)
[608][609]<C>5 T-AGOS 20 USNS ABLE (21866)
[609][610]<C>5 T-AGOS 21 USNS EFFECTIVE (21867)
[610][611]<C>5 T-AGOS 22 USNS LOYAL (21868)
[611][612]<C>5 T-AGOS 23 USNS IMPECCABLE (21906)
[612][613]<C>5 T-AGS 62 USNS BOWDITCH (22154)
[613][614]<C>5 T-AGS 63 USNS HENSON (22266)
[614][615]<C>5 T-AGS 65 USNS MARY SEARS (23167)
[615][616]<I>5 MISSILE RANGE INSTRUMENTATION SHIP (T-AGM)
[616][617]<C>24 USNS INVINCIBLE (21306)
[617][618]<C>5 T-AGM 25 USNS HOWARD O LORENZEN (10546)
[618][619]<C>5 SSV MV C-CHAMPION (23896)
[619][620]<C>5 T-AK 3008 USNS 2ND LT JOHN P BOBO (21629)
[620][621]<C>5 T-AK 3009 USNS PFC DEWAYNE T WILLIAMS (21630)
[621][622]<C>5 T-AK 3010 USNS 1ST LT BALDOMERO LOPEZ (21512)
[622][623]<C>5 T-AK 3011 USNS 1ST LT JACK LUMMUS (21633)
[623][624]<C>5 T-AK 3012 USNS SGT WILLIAM R BUTTON (21663)
[624][625]<C>5 T-AK 3017 USNS GYSGT FRED W STOCKHAM (23069)
[625][626]<C>5 T-AK 4396 MV MAJ BERNARD F FISHER (23276)
[626][627]<C>5 T-AK 4543 MV LTC JOHN U D PAGE (23423)
[627][628]<C>5 T-AK 4544 MV SSG EDWARD A CARTER JR (23424)
[628][629]<C>5 T-AK 5362 MV CAPT DAVID I LYON (24242)
[629][630]<C>5 LARGE, MEDIUM-SPEED ROLL ON/ROLL OFF (T-AKR) 302 USNS SEAY (22248)
[630][631]<C>5 T-AKR 304 USNS PILILAAU (22250)
[631][632]<C>5 T-AKR 311 USNS SISLER (22257)
[632][633]<C>5 T-AKR 312 USNS DAHL (22258)
[633][634]<C>5 T-AKR 313 USNS RED CLOUD (22259)
[634][635]<C>5 T-AKR 314 USNS CHARLTON (22260)
[635][636]<C>5 T-AKR 315 USNS WATKINS (22261)
[636][637]<C>5 T-AKR 316 USNS POMEROY (22262)
[637][638]<C>5 T-AKR 317 USNS SODERMAN (22263)
[638][639]<C>5 OFF SHORE PETROLEUM DISTRIBUTION SYSTEM (T-AG) 5001 VADM K R WHEELER (23881)
[639][640]<C>5 HIGH SPEED VESSEL (HSV) 4676 WESTPAC EXPRESS(23556)
[640][641]<C>5 HST 1 USNS GUAM (24046)
[641][642]<C>5 T-EPF 3 USNS MILLINOCKET (29786)
[642][643]<C>5 T-EPF 4 USNS FALL RIVER (29787)
[643][644]<C>5 T-EPF 6 USNS BRUNSWICK (29789)
[644][645]<C>5 T-AS 40 USS FRANK CABLE (HYBRID CREW) (23950)
[645][646]<C>5 T-AS 39 USS EMORY S LAND (HYBRID CREW) (23914)
[646][647]<C>2 COMMANDER, U.S. PACIFIC FLEET (COMPACFLT) (00070)
[647][648]<C>2 (COMPACFLT DET INTEL READINESS CELL) (30478)
[648][649]<C>2 (JOINT MOBILE ASHORE SUPPORT TEAM PAC) (43670)
[649][650]<M>2 (CPF MHLD DET COMPACAREA) (45549)
[650][651]<T>(CPF MHLD DET ALASKA) (48398)
[651][652]<T>(CPF MHLD DET EAST ASIA) (33415)
[652][653]<T>(CPF MHLD DET PACNORWEST) (33429)
[653][654]<T>(AFLOAT PLANNING SYSTEM PACIFIC) (39493)
[654][655]<>(COMPACFLT DET HICKAM) (40525, 32197)
[655][656]<C>3 NAVAL AIR FORCE, U.S. PACIFIC FLEET (57025)
[656][657]<M>(The Commander is also designated as Commander, Naval Air Forces (COMNAVAIRFOR), a dual hat, who serves as the Navys lead for the Naval Aviation Enterprise (NAE). (69294)
[657][659]<C>4 COMBINED SERVICES SUPPORT SCHOOLS PACIFIC (SVCSUPPSCOLSPAC) (31527)
[658][660]<C>4 FACSFAC SAN DIEGO (09528)
[659][661]<C>4 (FACSFAC DET SCORE) (3325A)
[660][662]<C>5 FACSFAC PEARL HARBOR (43583)
[661][663]<C>4 VX 9 (55646)
[662][664]<C>4 (VX 9 DET POINT MUGU) (09830)
[663][665]<C>4 (VX 9 DET EDWARDS) (58601)
[664][666]<C>4 33FW NAVY F35 EGLIN AFB FL (0952A)
[665][667]<C>4 NIMITZ (CVN 68) (03368)
[666][668]<C>4 VINSON (CVN 70) (20993)
[667][669]<C>4 THEODORE ROOSEVELT (CVN 71) (21247)
[668][670]<C>4 ABRAHAM LINCOLN (CVN 72) (21297)
[669][671]<C>4 GEORGE WASHINGTON (CVN 73) (21412)
[670][672]<C>4 JOHN C STENNIS (CVN 74) (21847)
[671][673]<C>4 RONALD REAGAN (CVN 76) (22178)
[672][674]<C>4 COMCARAIRWING TWO (09742)
[673][675]<C>4 COMCARAIRWING FIVE (09733)
[674][676]<C>4 COMCARAIRWING NINE (09738)
[675][677]<C>4 COMCARAIRWING ELEVEN (09734)
[676][678]<C>4 COMCARAIRWING SEVENTEEN (09745)
[677][679]<C>4 HELICOPTER SEA COMBAT WING PACIFIC (HELSEACOMBATWINGPAC) (55635)
[678][680]<C>4 (HELSEACOMBATWINGPAC VTUAV MAINTENANCE DET)(53510)
[679][681]<C>5 HELSEACOMBATWEPSCOLPAC (3166A)
[680][682]<C>5 HSC 3 FLEET REPLACEMENT SQUADRON (FRS) (09822)
[681][683]<C>5 (HSC 3 DET SCORE) (09569)
[682][684]<C>5 HSC 4 (09164)
[683][685]<C>5 HSC 6 (09950)
[684][686]<C>5 HSC 8 (09951)
[685][687]<C>5 HSC 12 (09372)
[686][688]<C>5 HSC14 (09209)
[687][689]<C>5 HSC 21 (42300)
[688][690]<C>5 HSC 23 (09848)
[689][691]<C>5 HSC 25 (52961)
[690][692]<C>4 HELICOPTER MARITIME STRIKE WING PACIFIC (55630)
[691][693]<C>5 HELMARSTRIKEWEPSCOLPAC (3168A)
[692][694]<C>5 HSM 35 (52876)
[693][695]<C>5 HSM 37 (53815)
[694][696]<C>5 HSM 41 (FRS) (55138)
[695][697]<C>5 HSM 49 (55152)
[696][698]<C>5 HSM51 (48550)
[697][699]<C>5 (HSM 51 DET 11) (31778)
[698][700]<C>5 HSM 71 (09855)
[699][701]<C>5 HSM 73 (55146)
[700][702]<C>5 HSM 75 (53915)
[701][703]<C>5 HSM 77 (55150)
[702][704]<C>5 HSM 78 (09886)
[703][705]<C>5 HSM 79 (57820)
[704][706]<C>4 NAVAL AVIATION TRAINING SUPPORT GROUP NEW RIVER(36084)
[705][707]<C>4 AIRBORNE COMMAND & CONTROL AND LOGISTICS WING (ACCLOGWING) (55634)
[706][708]<C>4 (ACCLOGWING DET NORFOLK) (09052)
[707][709]<M>4 (UCLASS FIT POINT MUGU) (58250)
[708][710]<T>(AIRBORNE COMMAND & CONTROL AND LOGISTICS WEAPONS SCHOOL PACIFIC) POINT MUGU (3231A)
[709][711]<T>(AIRBORNE COMMAND & CONTROL AND LOGISTICS WEAPONS SCHOOL ATLANTIC) NORFOLK (3123B)
[710][712]<T>(UNCLASS FIT) (58250)
[711][713]<C>5 FLEET LOGISTICS SUPPORT SQUADRON (VRC) 40 (09303)
[712][714]<C>5 VRC 30 (09607)
[713][715]<C>5 VRC 30 DET 5 (39491)
[714][716]<C>5 AIRBORNE COMMAND AND CONTROL SQUADRON (VAW) 113 (09459)
[715][717]<C>5 VAW 115 (09463)
[716][718]<C>5 VAW 116 (09465)
[717][719]<C>5 VAW 117 (09985)
[718][720]<C>5 VAW 120 (FRS) (09527)
[719][721]<C>5 VAW 121 (09467)
[720][722]<C>5 VAW 123 (09477)
[721][723]<C>5 VAW 124 (09526)
[722][724]<C>5 VAW 125 (09922)
[723][725]<C>5 VAW 126 (09963)
[724][726]<C>4 FLEET LOGISTICS MULTI-MISSION WING (VRMWING)(5000A)
[725][727]<C>4 (VRMWING VMTT DET 204) (33455)
[726][728]<C>5 FLEET LOGISTICS MULTI-MISSION SQUADRON (VRM) 30 (36122)
[727][729]<C>5 VRM 50 (FRS) (4991D)
[728][730]<C>4 STRIKE FIGHTER WING PACIFIC (09520)
[729][731]<C>4 (STRKFIGHTWINGPAC DET NAMCE LEMOORE CA) (50447)
[730][732]<C>4 (STRKFIGHTWINGPAC MAINTENANCE UNIT EL CENTRO) (55257)
[731][733]<C>5 STRIKE FIGHTER WEAPONS SCHOOL PACIFIC (35185)
[732][734]<C>5 VFA 2 (09113)
[733][735]<C>5 VFA 14 (09084)
[734][736]<C>5 VFA 22 (09561)
[735][737]<C>5 VFA 25 (09637)
[736][738]<C>5 VFA 27 (65185)
[737][739]<C>5 VFA 41 (09774)
[738][740]<C>5 VFA 86 (09943)
[739][741]<C>5 VFA 94 ` (09295)
[740][742]<C>5 VFA 97 (63923)
[741][743]<C>5 VFA 102 (09717)
[742][744]<C>5 VFA 113 (09092)
[743][745]<C>5 VFA 115 (09604)
[744][746]<C>5 VFA 122 (FRS) (09355)
[745][747]<C>5 VFA 136 (55141)
[746][748]<C>5 VFA 137 (55142)
[747][749]<C>5 VFA 146 (09063)
[748][750]<C>5 VFA 151 (09558)
[749][751]<C>5 VFA 154 (09678)
[750][752]<C>5 VFA 192 (09076)
[751][753]<C>5 VFA 195 (09706)
[752][754]<C>4 JOINT STRIKE FIGHTER WING (36203)
[753][755]<>(JSFWING)
[754][756]<C>5 VFA 125 (09485)
[755][757]<C>5 VFA 147 (63925)
[756][758]<C>4 ELECTRONIC ATTACK WING PACIFIC (55627)
[757][759]<C>5 ELECTRONIC ATTACK WEAPONS SCHOOL (47445)
[758][760]<C>5 VAQ 129 (FRS) (09995)
[759][761]<C>5 VAQ 130 (09289)
[760][762]<C>5 VAQ 131 (09364)
[761][763]<C>5 VAQ 132 (09615)
[762][764]<C>5 VAQ 133 (09969)
[763][765]<C>5 VAQ 134 (09970)
[764][766]<C>5 VAQ 135 (09971)
[765][767]<C>5 VAQ 136 (09973)
[766][768]<C>5 VAQ 137 (09996)
[767][769]<C>5 VAQ 138 (09199)
[768][770]<C>5 VAQ 139 (09200)
[769][771]<C>5 VAQ 140 (53806)
[770][772]<C>5 VAQ 141 (53807)
[771][773]<C>5 VAQ 142 (55140)
[772][774]<C>4 PATROL AND RECONNAISSANCE GROUP PACIFIC (09517)
[773][775]<>(The Command is assigned as a dual hat for
[774][776]<>COMMANDER, PATROL AND RECONNAISSANCE GROUP (39555),
[775][777]<>who serves as lead to coordinate Title 10 programs
[776][778]<>for all Maritime Patrol and Reconnaissance Forces,
[777][779]<>and reports under COMNAVAIRLANT.)
[778][780]<C>5 PATROL AND RECONNAISSANCE WING 10 (55165)
[779][781]<C>5 (COMPATRECONWING TEN DET FSU) (4353A)
[780][782]<C>5 (MTOC TWO) (48765)
[781][783]<M>5 (MTOC FOUR) (31625)
[782][784]<T>(MTOC SIX) (49136)
[783][785]<T>(MTOC EIGHT) (55700)
[784][786]<T>(MTOC TEN) (55701)
[785][787]<T>(MTOC TWELVE) (55702)
[786][788]<C>6 TOC WHIDBEY ISLAND (45521)
[787][789]<C>6 TOC KANEOHE (46029)
[788][790]<C>6 VP 1 (09618)
[789][791]<C>6 VP 4 (09623)
[790][792]<C>6 VP 40 (09674)
[791][793]<C>6 VP 46 (09632)
[792][794]<C>6 VP 47 (09600)
[793][795]<C>6 VP 9 (09644)
[794][796]<C>6 VPU 2 (09244)
[795][797]<C>6 FLEET AIR RECONNAISSANCE SQUADRON (VQ) 1 (09930)
[796][798]<C>4 STRATEGIC COMMUNICATIONS WING (STRATCOMMWING) ONE (55575)
[797][799]<C>5 TAKE CHARGE AND MOVE OUT (TACAMO) WEAPONS SCHOOL (60030)
[798][800]<C>5 VQ 3 (55154)
[799][801]<C>5 (VQ 3 DET TRAVIS) (47294)
[800][802]<C>5 (VQ 3 DET OFFUTT) (55677)
[801][803]<C>5 VQ 4 (42065)
[802][804]<C>5 (VQ 4 DET PATUXENT) (49403)
[803][805]<C>5 VQ 7 (FRS) (47372)
[804][806]<C>4 COMMANDER, FLEET AIR WESTERN PACIFIC (COMFAIRWESTPAC) (09356)
[805][807]<C>4 (COMFAIRWESTPAC AIMD MISAWA) (44331)
[806][808]<M>4 (COMFAIRWESTPAC AIMD ATSUGI) (44323)
[807][809]<T>(COMFAIRWESTPAC AIMD IWAKUNI) (49340)
[808][810]<T>(COMFAIRWESTPAC AIMD BAHRAIN) (44337)
[809][811]<T>(COMFAIRWESTPAC AIMD GUAM) (50185)
[810][812]<T>(COMFAIRWESTPAC AIMD KADENA) (3977A)
[811][813]<T>(COMFAIRWESTPAC AVIATION SUPPLY DETACHMENT (ASD)) BAHRAIN) (3556A)
[812][814]<T>(COMFAIRWESTPAC ASD MISAWA) (3557A)
[813][815]<T>(COMFAIRWESTPAC ASD GUAM) (50527)
[814][816]<T>(COMFAIRWESTPAC ASD ATSUGI) (51212)
[815][817]<T>(COMFAIRWESTPAC ASD IWAKUNI) (51211)
[816][818]<T>(COMFIARWESTPAC ASD KADENA (51213)
[817][819]<C>5 NAVAL AIR WEAPONS MAINTEMAMCE UNIT ONE (52821)
[818][820]<C>3 NAVAL SURFACE FORCE U.S. PACIFIC FLEET (53824)
[819][821]<M>(The Commander is also designated as COMMANDER, NAVAL SURFACE FORCES (COMNAVSURFOR) under UIC 69293, a dual hat, who serves as the Navys lead for the Surface Warfare Enterprise (SWE) (69293)
[820][823]<C>4 SOMERSET LPD 25 (23181)
[821][824]<C>4 LAKE ERIE CG 70 (21827)
[822][825]<C>4 BUNKER HILL CG 52 (21345)
[823][826]<C>4 MOBILE BAY CG 53 (21346)
[824][827]<C>4 LAKE CHAMPLAIN CG 57 (21428)
[825][828]<C>4 PRINCETON CG 59 (21447)
[826][829]<C>4 COWPENS CG 63 (21623)
[827][830]<C>4 BONHOMME RICHARD LHD 6 (22202)
[828][831]<C>4 JOHN P MURTHA LPD 26 (23182)
[829][832]<C>4 PORTLAND LPD 27 (3277A)
[830][833]<C>4 TRIPOLI LHA 7 (27501)
[831][834]<C>4 MIGUEL KEITH ESB 5 (70026)
[832][835]<>(HULL HUBBED AT SAIPAN, MARIANAS)
[833][836]<C>4 AMPHIBIOUS SQUADRON 7 (55298)
[834][837]<>(Establish EFF 1 July 2020)
[835][838]<C>4 SURFACE DEVELOPMENT SQUADRON ONE (55770)
[836][839]<C>5 ZUMWALT DDG 1000 (20121)
[837][840]<C>5 MICHAEL MONSOOR DDG 1001 (23189)
[838][841]<I>5 (LYNDON JOHNSON DDG 1002) (41163)(PCU)
[839][842]<C>4 NAVAL SURFACE GROUP WESTPAC (36139)
[840][843]<C>5 ANTIETAM CG 54 (21387)
[841][844]<C>5 CHANCELLORSVILLE CG 62 (21451)
[842][845]<C>5 SHILOH CG 67 (21657)
[843][846]<C>5 CURTIS WILBUR DDG 54 (21640)
[844][847]<C>5 JOHN S MCCAIN DDG 56 (21686)
[845][848]<C>5 MCCAMPBELL DDG 85 (22993)
[846][849]<C>5 MUSTIN DDG 89 (22997)
[847][850]<C>5 BENFOLD DDG 65 (21940)
[848][851]<C>5 BARRY DDG 52 (21660)
[849][852]<C>5 MILIUS DDG 69 (21943)
[850][853]<C>4 DESTROYER SQUADRON 1 (0172A)
[851][854]<C>5 OKANE DDG 77 (21951)
[852][855]<C>5 DEWEY DDG 105 (23162)
[853][856]<C>5 MICHAEL MURPHY DDG 112 (55688)
[854][857]<C>5 FITZGERALD DDG 62 (21824)
[855][858]<C>5 HIGGINS DDG 76 (21950)
[856][859]<C>4 DESTROYER SQUADRON 7/MARITIME STAFF ELEMENT (0116A)
[857][860]<C>4 DESTROYER SQUADRON9 (0118A)
[858][861]<C>5 SHOUP DDG 86 (22994)
[859][862]<C>5 HOWARD DDG 83 (22999)
[860][863]<C>6 CHAFEE DDG 90 (23155)
[861][864]<C>6 RALPH JOHNSON DDG 114 (50125)
[862][865]<C>5 STERETT DDG 104 (23166)
[863][866]<C>5 HALSEY DDG 97 (23154)
[864][867]<C>5 SAMPSON DDG 102 (23161)
[865][868]<C>4 DESTROYER SQUADRON 15 (0124A)
[866][869]<C>4 DESTROYER SQUADRON21 (0130A)
[867][870]<C>5 DECATUR DDG 73 (21947)
[868][871]<C>5 STOCKDALE DDG 106 (23163)
[869][872]<C>5 CHUNG-HOON DDG 93 (23146) 5 STETHEM DDG 63 (21825)
[870][873]<C>5 SPRUANCE DDG 111 (55687)
[871][874]<C>5 GRIDLEY DDG 101 (23151)
[872][875]<C>4 DESTROYER SQUADRON23 (0132A)
[873][876]<C>5 PREBLE DDG 88 (22996)
[874][877]<C>5 RUSSELL DDG 59 (21821)
[875][878]<C>5 RAFAEL PERALTA DDG 115 (50126)
[876][879]<C>5 PINCKNEY DDG 91 (23145)
[877][880]<C>5 KIDD DDG 100 (23152)
[878][881]<C>5 PAUL HAMILTON DDG 60 (21822)
[879][882]<C>4 NAVAL SURFACE GROUP MIDDLE PACIFIC (55315)
[880][883]<>(The Commander is assigned a dual hat as
[881][884]<>COMMANDER, NAVY REGION HAWAII (61449) under
[882][885]<>COMMANDER, NAVY INSTALLATIONS COMMAND as the Regional
[883][886]<>Commander.)
[884][887]<C>5 PORT ROYAL CG 73 (21830)
[885][888]<C>5 DESTROYER SQUADRON 31 (55528)
[886][889]<C>6 JOHN PAUL JONES DDG 53 (21313)
[887][890]<C>6 HOPPER DDG 70 (21944)
[888][891]<C>6 MOMSEN DDG 92 (23160)
[889][892]<C>6 WILLIAM P LAWRENCE DDG 110 (55686)
[890][893]<C>6 PCU DANIEL INOUYE DDG 118 (50187)
[891][894]<>(Initial HP Assign Pearl Harbor EFF 30 Apr 2020)
[892][895]<C>6 WAYNE E MEYER DDG 108 (55684)
[893][896]<C>6 JOHN FINN DDG 113 (20010)
[894][897]<C>4 LCS SQUADRON 1 (39872)
[895][898]<C>4 (LCSRON 1 DET MISSION PACKAGE SUPPORT FACILITY) (42420)
[896][899]<C>5 FREEDOM LCS 1 (20126)
[897][900]<C>5 INDEPENDENCE LCS 2 (20127)
[898][901]<C>5 FORT WORTH LCS 3 (20130)
[899][902]<C>5 CORONADO LCS 4 (20131)
[900][903]<C>5 MINE DIVISION TWELVE (0091C)
[901][904]<C>6 MANCHESTER LCS 14 (20095)
[902][905]<C>6 TULSA LCS 16 (20097)
[903][906]<C>6 CHARLESTON LCS 18 (20156)
[904][907]<C>6 CINCINNATI LCS 20 (20158)
[905][908]<C>5 KANSAS CITY LCS 22 (20160)
[906][909]<C>5 (PCU OAKLAND LCS 24) (20168)
[907][910]<C>5 (PCU MOBILE LCS 26) (20170)
[908][911]<C>5 (PCU SAVANNAH LCS 28) (20172)
[909][912]<C>5 (PCU CANBERRA LCS 30) (20259)
[910][913]<C>5 (PCU SANTA BARBARALCS 32) (20261)
[911][914]<C>5 (PCU AUGUSTA LCS 34) (20263)
[912][915]<C>5 SURFACE DIVISION 11 (50586)
[913][916]<C>6 JACKSON LCS 6 (20135)
[914][917]<C>6 MONTGOMERY LCS 8 (20137)
[915][918]<C>6 GABRELLE GIFFORDS LCS 10 (20139)
[916][919]<C>6 OMAHA LCS 12 (20141)
[917][920]<C>4 BOXER LHD 4 (21808)
[918][921]<C>4 BLUE RIDGE LCC 19 (05840)
[919][922]<C>4 AMPHIBIOUS SQUADRON 11 (55468)
[920][923]<C>5 ASHLAND LSD 48 (21531)
[921][924]<C>5 GERMANTOWN LSD 42 (21639)
[922][925]<C>5 GREEN BAY LPD 20 (3012A)
[923][926]<C>5 FLTSURGTEAM 7 (30250)
[924][927]<C>5 NEW ORLEANS LPD 18 (23168)
[925][928]<C>4 AMPHIBIOUS SQUADRON 5 (55269)
[926][929]<C>5 FLTSURGTEAM 5 (49343)
[927][930]<C>4 AMPHIBIOUS SQUADRON 3 (55281)
[928][931]<C>5 SAN DIEGO LPD 22 (3014A)
[929][932]<C>5 PEARL HARBOR LSD 52 (21959)
[930][933]<C>5 FLTSURGTEAM 1 (47418)
[931][934]<C>4 ESSEX LHD 2 (21533)
[932][935]<C>4 RUSHMORE LSD 47 (21530)
[933][936]<C>4 HARPERS FERRY LSD 49 (21852)
[934][937]<C>4 FLTSURGTEAM 9 (30265)
[935][938]<C>4 MAKIN ISLAND LHD 8 (23171)
[936][939]<C>4 AMPHIBIOUS SQUADRON 1 (55297)
[937][940]<C>5 ANCHORAGE LPD 23 (3015A)
[938][941]<C>5 COMSTOCK LSD 45 (21452)
[939][942]<C>5 FLTSURGTEAM 3 (47420)
[940][943]<C>4 AMERICA (AMPHIBIOUS ASSAULT SHIP) LHA 6 (20103)
[941][944]<C>4 NAVAL BEACH GROUP 1 (57066)
[942][945]<C>5 ACU ONE (53257)
[943][946]<C>5 (ACU ONE DET WESTPAC A) (55419)
[944][947]<C>5 (ACU ONE LANDING CRAFT MINOR DET B) (55598)
[945][948]<M>5 (ACU ONE LANDING CRAFT UTILITY (LCU) DET A) (55597)
[946][949]<C>5 ACU FIVE (45411)
[947][950]<C>5 BMU ONE (53212)
[948][951]<C>5 PHIBCB ONE (55104)
[949][952]<C>5 NAVY BEACH (NAVBEACH) UNIT SEVEN (57078)
[950][953]<C>5 (NAVBEACH UNIT SEVEN DET BMU) (49388)
[951][954]<C>5 (NAVBEACH UNIT SEVEN DET LANDING CRAFT AIR CUSHION (LCAC)) (55621)
[952][955]<M>5 (NAVBEACH UNIT SEVEN DET LCU) (55622)
[953][956]<C>4 TACTICAL AIR CONTROL GROUP 1 (09815)
[954][957]<C>5 TACTICAL AIR CONTRO SQUADRON (VTC) 11 (55134)
[955][958]<C>5 VTC 12 (55135)
[956][959]<C>5 (VTC 12 DET WESTPAC) (55623)
[957][960]<C>4 COMMANDER, MINE COUNTERMEASURES SQUADRON (COMCMRON) SEVEN (55540)
[958][961]<C>5 PATRIOT (MINE COUNTERMEASURES SHIP) MCM 7 (21453)
[959][962]<C>5 PIONEER MCM 9 (21456)
[960][963]<C>5 CHIEF MCM 14 (21902)
[961][964]<C>5 WARRIOR MCM 10 (21457)
[962][965]<C>4 COMCMRON FIVE (55645)
[963][966]<C>4 COMCMRON THREE (55554)
[964][967]<C>5 COMMANDER MINE COUNTERMEASURES DIVISION (COMCMDIV) THREE ONE (41979)
[965][968]<C>5 CHAMPION MCM 4 (21405)
[966][969]<C>5 SCOUT MCM 8 (21455)
[967][970]<C>5 ARDENT MCM 12 (21900)
[968][971]<C>4 AFLOATRAGRU PACIFIC SAN DIEGO (57062)
[969][972]<C>5 AFLOATRAGRU SAN DIEGO (49365)
[970][973]<C>5 AFLOATRAGRU PACIFIC NORTH WEST (31379)
[971][974]<C>5 AFLOATRAGRU MIDPAC (57063)
[972][975]<C>5 AFLOATRAGRU WESTPAC (57064)
[973][976]<C>5 (AFLOATRAGRU WESTPAC DET SASEBO) (49366)
[974][977]<C>4 SURFACE FORCE PACIFIC REP PUGET SOUND (35944)
[975][978]<C>4 REGIONAL SUPPORT ORGANIZATION PACNORWEST (55271)
[976][979]<C>3 COMMANDER, SUBMARINE FORCE U.S.PACIFIC FLEET (COMSUBPAC) (57020)
[977][980]<C>4 COMMANDER, ANTI-SUBMARINE WARFARE FORCE THIRD FLEET PEARL HARBOR HI (43020)
[978][981]<C>4 EMORY S LAND SUBMARINE TENDER (AS) 39 (20635)
[979][982]<C>4 FRANK CABLE AS 40 (20865)
[980][983]<C>4 SUBMARINE SQUADRON 1 (55346)
[981][984]<C>5 CHARLOTTE SSN 766 (21763)
[982][985]<C>5 GREENEVILLE SSN 772 (21831)
[983][986]<C>5 TEXAS SSN 775 (23028)
[984][987]<C>5 HAWAII SSN 776 (23159)
[985][988]<C>5 NORTH CAROLINA SSN 777 (23190)
[986][989]<C>5 MISSISSIPPI SSN 782 (20080)
[987][990]<C>5 ILLINOIS SSN 786 (20181)
[988][991]<C>5 MISSOURI SSN 780 (20002)
[989][992]<C>5 (PCU OREGON SSN 793) (27155)
[990][993]<C>4 SUBMARINE DEVELOPMENT SQUADRON (SUBDEVRON) 5 (55522)
[991][994]<C>4 (SUBDEVRON 5 DET BANGOR WA) (52730)
[992][995]<M>4 (SUBDEVRON 5 DET DIVING BANGOR WA) (44904)
[993][996]<T>(SUBDEVRON 5 DET UUV BANGOR WA) (45242)
[994][997]<C>5 UUVRON ONE (4000Y)
[995][998]<C>5 JIMMY CARTER SSN 23 (41718)
[996][999]<C>5 CONNECTICUT SSN 22 (21859)
[997][1000]<C>5 SEAWOLF SSN 21 (21834)
[998][1001]<C>4 SUBMARINE SQUADRON 7 (53896)
[999][1002]<C>5 COLUMBUS SSN 762 (21692)
[1000][1003]<C>5 SANTA FE SSN 763 (21693)
[1001][1004]<C>5 TUCSON SSN 770 (21816)
[1002][1005]<C>5 COLUMBIA SSN 771 (21817)
[1003][1006]<C>5 CHEYENNE SSN 773 (21832)
[1004][1007]<C>5 JEFFERSON CITY SSN 759 (21605)
[1005][1008]<C>5 CHICAGO SSN 721 (21100)
[1006][1009]<C>5 SPRINGFIELD SSN 761 (21691)
[1007][1010]<C>4 SUBMARINE SQUADRON 11 (55244)
[1008][1011]<C>5 ALEXANDRIA SSN 757 (21465)
[1009][1012]<C>5 SCRANTON SSN 756 (21464)
[1010][1013]<C>5 HAMPTON SSN 767 (21764)
[1011][1014]<C>5 ANNAPOLIS SSN 760 (21690)
[1012][1015]<C>5 ARCO ARDM 5 (20036)
[1013][1016]<C>5 UNDERSEA RESCUE COMMAND SAN DIEGO (32117)
[1014][1017]<C>4 SUBMARINE SQUADRON 15 (43709)
[1015][1018]<C>5 KEY WEST SSN 722 (21101)
[1016][1019]<C>5 OKLAHOMA CITY SSN 723 (21102)
[1017][1020]<C>5 TOPEKA SSN 754 (21463)
[1018][1021]<C>5 ASHEVILLE SSN 758 (21466)
[1019][1022]<C>4 SUBMARINE GROUP 7 (33174)
[1020][1023]<C>5 SUBMARINE SQUADRON 21 (42897)
[1021][1024]<C>4 SUBMARINE GROUP 9 (53885)
[1022][1025]<C>5 NAVSUBSUPPCEN BANGOR WA (61106)
[1023][1026]<C>5 SUBMARINE SQUADRON 19 (4280A)
[1024][1027]<C>6 OHIO SSGN 726 (21036)
[1025][1028]<C>6 MICHIGAN SSGN 727 (21037)
[1026][1029]<C>6 MAINE SSBN 741 (21826)
[1027][1030]<C>5 SUBMARINE SQUADRON 17 (53886)
[1028][1031]<C>6 HENRY M JACKSON SSBN 730 (21040)
[1029][1032]<C>6 ALABAMA SSBN 731 (21041)
[1030][1033]<C>6 NEVADA SSBN 733 (21043)
[1031][1034]<C>6 PENNSYLVANIA SSBN 735 (21045)
[1032][1035]<C>6 LOUISIANA SSBN 743 (21861)
[1033][1036]<C>6 KENTUCKY SSBN 737 (21433)
[1034][1037]<C>6 NEBRASKA SSBN 739 (21461)
[1035][1038]<C>4 COMMANDER, UNDERSEA SURVEILLANCE (COMUNDERSEASURV) DAM NECK VA (62853)
[1036][1039]<C>4 (COMUNDERSEASURV DET SASEBO JA) (62859)
[1037][1040]<C>4 NAVSUBSUPPCEN PEARL HARBOR HI (44429)
[1038][1041]<C>4 NAVY DATA CENTER YOKOSUKA (32806)
[1039][1042]<C>4 (NAVY DATA CENTER DET OKINAWA) (45196)
[1040][1043]<C>4 PRIORITY MATERIAL OFFICE (MATOFF) BREMERTON (00441)
[1041][1044]<C>4 (PRIORITY MATOFF DET PEARL HARBOR HI) (44700)
[1042][1045]<M>4 (PRIORITY MATOFF DET NORFOLK VA) (45919)
[1043][1046]<T>(PRIORITY MATOFF DET GROTON CT) (45918)
[1044][1047]<T>(PRIORITY MATOFF DET MAYPORT FL) (50070)
[1045][1048]<T>(PRIORITY MATOFF DET KINGS BAY GA) (40415)
[1046][1049]<T>(PRIORITY MATOFF DET TRAVIS AFB CA) (44454)
[1047][1050]<T>(PRIORITY MATOFF DET GUAM) (50072)
[1048][1051]<T>(PRIORITY MATOFF DET SAN DIEGO CA) (46575)
[1049][1052]<T>(PRIORITY MATOFF DET SIGONELLA IT) (50071)
[1050][1053]<T>(PRIORITY MATOFF DET BAHRAIN) (50073)
[1051][1054]<T>(PRIORITY MATOFF DET YOKOSUKA) (3657A)
[1052][1055]<C>4 COMSUBPAC REP WEST COAST (42474)
[1053][1056]<C>4 COMSUBPAC SHIPYARD REP PUGET SOUND (33057)
[1054][1057]<C>4 COMSUBPAC SHIPYARD REP PACNORTHWEST (53885)
[1055][1058]<C>4 COMSUBPAC SHIPYARD REP PEARL HARBOR (48298)
[1056][1059]<C>3 COMMANDER, U.S. THIRD FLEET (57087)
[1057][1060]<I>4 COMMANDER CARRIER STRIKE GROUP (COMCARSTRKGRU)
[1058][1061]<>FIFTEEN (09721)#
[1059][1062]<C>5 COMMANDING OFFICER, TACTICAL TRAINING GROUP PACIFIC (TACTRAGRUPAC) (53996)
[1060][1063]<C>5 (DIRECTOR, TACTRAGRUPAC DET YOKOSUKA (40434)
[1061][1064]<I>4 COMCARSTRKGRU ONE (57098)#
[1062][1065]<I>4 COMCARSTRKGRU THREE (09722)#
[1063][1066]<I>4 COMCARSTRKGRU SEVEN (09724)#
[1064][1067]<I>4 COMCARSTRKGRU NINE (55780)#
[1065][1068]<I>4 COMCARSTRKGRU ELEVEN (55775)#
[1066][1069]<I>4 COMEXSTRKGRU THREE (52739)#
[1067][1070]<C>3 COMMANDER, U.S. SEVENTH FLEET (57024)
[1068][1071]<I>4 COMCARSTRKGRU FIVE (09723)#
[1069][1072]<C>4 COMEXSTRKGRU SEVEN (55308)# (COMEXSTRKGRU SEVEN DET SASEBO) (31915)
[1070][1073]<C>4 PATROL AND RECONNAISSANCE WING ONE (09451)
[1071][1074]<C>4 (COMPATRECONWING ONE DET ATSUGI) (43021)
[1072][1075]<C>4 (MTOC SIX) (49136)
[1073][1076]<M>4 (TOC KADENA) (32515)
[1074][1077]<C>4 FLEET COORDINATION GROUP (30247)
[1075][1078]<>#(COMUSFLTFORCOM/COMPACFLT established a support relationship between the COMCARSTRKGRU/COMEXSTRKGRU commander (supported commander) and the TYCOM (supporting commander). TYCOMs provide ADCON support for units assigned OPCON to a COMCARSTRKGRU/COMEXSTRKGRU. TYCOMs and COMCARSTRKGRU/COMEXSTRKGRU commanders work integrated solutions to achieve unit readiness to meet COMCARSTRKGRU/COMEXSTRKGRU mission requirements.)
[1076][1079]<C>3 U.S. NAVAL FORCES JAPAN (57006)
[1077][1080]<>(The Commander is assigned a "dual hat" as COMMANDER
[1078][1081]<>NAVY REGION (COMNAVREG) JAPAN (61076) under
[1079][1082]<>COMMANDER, NAVY INSTALLATIONS COMMAND (CNIC) as the
[1080][1083]<>Regional Commander.)
[1081][1084]<I>3 U.S. NAVAL FORCES KOREA (COMNAVFORKOREA) (62894, 37310)
[1082][1085]<>(SPLIT LOCATION FOR COMMAND)
[1083][1086]<M>(The Commander is assigned a "dual hat" as COMNAVREG KOREA (61075) under CNIC as the Regional Commander.) (COMNAVFORKOREA DET COMBINED NAVAL INTELLIGENCE CELL CHINHAE) (45802)
[1084][1088]<T>(COMNAVFORKOREA NAVY COMPONENT COMMAND DET CHINHAE) (44461)
[1085][1089]<C>3 U.S. NAVAL FORCES MARIANAS (COMNAVMARIANAS) (57043)
[1086][1090]<M>(The Commander is assigned a "dual hat" as COMMANDER JOINT REGION MARIANAS (61128) under CNIC as the Regional Commander.) (COMNAVMARIANAS DET CIVIC ACTION TEAM GU) (55520)
[1087][1092]<C>3 LOGISTIC GROUP WESTPAC (55341)
[1088][1093]<>(The commander is assigned a "dual hat" as Commander
[1089][1094]<>Singapore Area coordinator (61077) under CNIC.)
[1090][1095]<C>3 NAVY EXPEDITIONARY COMBAT COMMAND PACIFIC (57046)
[1091][1096]<>(The Commander is assigned a dual hat as COMMANDER,
[1092][1097]<>NAVY EXPEDITIONARY COMBAT COMMAND (4582A) who serves as
[1093][1098]<>lead to coordinate Title 10 programs for NECC Forces
[1094][1099]<>under COMUSFLTFORCOM.)
[1095][1100]<C>4 NAVY EXPEDITIONARY FORCES COMMAND PACIFIC (33710)
[1096][1101]<C>4 NCG ONE (55752)
[1097][1102]<C>5 NMCB 3 (55103)
[1098][1103]<C>5 NMCB 4 (55114)
[1099][1104]<C>5 NMCB 5 (55115)
[1100][1105]<C>5 UCT TWO (35233)
[1101][1106]<C>5 CBMU 303 (55644)
[1102][1107]<C>5 (CBMU 303 DET PEARL HARBOR) (66648)
[1103][1108]<C>5 FIRST NCR (81381)
[1104][1109]<C>6 NMCB 18 (08917)
[1105][1110]<C>6 NMCB 22 (55531)
[1106][1111]<C>6 NMCB 25 (08865)
[1107][1112]<C>5 THREE ZERO NCR (55611)
[1108][1113]<C>5 (COM THREE ZERO NCR DET OKINAWA) (53882)
[1109][1114]<C>4 COASTAL RIVERINE GROUP (CORIVGRU) ONE (57092)
[1110][1115]<C>4 (CORIVGRU ONE DET COMBAT SERVICE SUPPORT) (55886)
[1111][1116]<C>4 (CORIVGRU ONE DET GUAM) (55887)
[1112][1117]<C>5 COASTAL RIVERINE SQUADRON ONE (30682)
[1113][1118]<C>5 COASTAL RIVERINE SQUADRON THREE (3349A)
[1114][1119]<C>6 CORIVRON THREE MK VI CO ALPHA (36070)
[1115][1120]<C>7 CORIVRON THREE MK VI CO ALPHA BOAT CREW 1(36072)
[1116][1121]<C>7 CORIVRON THREE MK VI CO ALPHA BOAT CREW 2(36073)
[1117][1122]<C>7 CORIVRON THREE MK VI CO ALPHA BOAT CREW 3(36074)
[1118][1123]<C>6 CORIVRON THREE MK VI CO BRAVO (36071)
[1119][1124]<C>7 CORIVRON THREE MK VI CO BRAVO BOAT CREW 1(36075)
[1120][1125]<C>7 CORIVRON THREE MK VI CO BRAVO BOAT CREW 2(36076)
[1121][1126]<C>7 CORIVRON THREE MK VI CO BRAVO BOAT CREW 3(36077)
[1122][1127]<C>5 COASTAL RIVERINE SQUADRON ELEVEN (55823)
[1123][1128]<C>4 EXPLOSIVE ORDNANCE DISPOSAL GROUP ONE (55321)
[1124][1129]<C>5 EODMU ONE (31968)
[1125][1130]<C>5 EODESU ONE (82630)
[1126][1131]<C>5 EOD TRAINING AND EVALUATION UNIT ONE (30202)
[1127][1132]<C>5 EODMU THREE (55447)
[1128][1133]<C>5 (EODMU THREE DETACHMENT CHINA LAKE) (30697)
[1129][1134]<C>5 (EODMU THREE DETACHMENT MDS) (58602)
[1130][1135]<M>5 (EODMU THREE DETACHMENT SOUTHWEST) (48176)
[1131][1136]<C>5 EODMU FIVE (30215)
[1132][1137]<C>5 (EODMU FIVE DET JAPAN) (30217)
[1133][1138]<C>5 (EODMU FIVE DET MARIANAS) (30208)
[1134][1139]<C>5 EODMU ELEVEN (55569)
[1135][1140]<C>5 (EODMU ELEVEN DETACHMENT BANGOR) (42969)
[1136][1141]<C>5 (EODMU ELEVEN DETACHMENT FALLON) (30209)
[1137][1142]<M>5 (EODMU ELEVEN DETACHMENT NORTHWEST) (30203)
[1138][1143]<T>(EODMU ELEVEN DETACHMENT MDS) (49974)
[1139][1144]<C>5 MOBILE DIVING AND SALVAGE UNIT ONE (55550)
[1140][1145]<C>5 (MOBILE DIVING AND SALVAGE UNIT ONE DET EOD) (32082)
[1141][1146]<C>3 NAVY MUNITIONS COMMAND PACIFIC (NMCPAC) EAST ASIA DIVISION (EAD) (40629)
[1142][1147]<C>4 NMCPAC EAD UNIT PEARL HARBOR) (68297)
[1143][1148]<C>4 NMCPAC EAD UNIT SASEBO (62735)
[1144][1149]<C>4 NMCPAC EAD UNIT YOKOSUKA (61581)
[1145][1150]<C>4 (NMCPAC EAD DET ATSUGI) (61583)
[1146][1151]<C>4 NMCPAC EAD UNIT GUAM (61055)
[1147][1152]<C>4 NMCPAC EAD UNIT OKINAWA (62254)
[1148][1153]<C>4 (NMCPAC EAD DET DIEGO GARCIA) (40554)
[1149][1154]<C>4 NMCPAC EAD UNIT MISAWA (61584)
[1150][1155]<C>3 NMCPAC CONUS WEST DIVISION (CWD) (40628)
[1151][1156]<M>(The Commander is assigned a dual hat as Commanding Officer, Naval Weapons Station Seal Beach under UIC 61065.) (NMCPAC CWD DET FALLBROOK) (47618)
[1152][1158]<T>(NMCPAC CWD DET POINT LOMA) (44943)
[1153][1159]<T>(NMCPAC CWD DET NORTH ISLAND) (61047)
[1154][1160]<T>(NMCPAC CWD DET SAN CLEMENTE ISLAND) (61046)
[1155][1161]<T>(NMCPAC CWD DET LEMOORE) (61059)
[1156][1162]<T>(NMCPAC CWD DET FALLON) (61052)
[1157][1163]<T>(NMCPAC CWD DET EL CENTRO) (61051)
[1158][1164]<T>(NMCPAC CWD DET POINT MUGU) (61063)
[1159][1165]<T>(NMCPAC CWD DET CHINA LAKE) (40409)
[1160][1166]<T>(NMCPAC CWD DET WHIDBEY ISLAND) (61048)
[1161][1167]<C>4 NMCPAC CWD UNIT INDIAN ISLAND (48537)
[1162][1168]<C>4 NMCPAC CWD UNIT SEAL BEACH (47615)
[1163][1169]<>** - SHORE ACTIVITY IN FLEET ADMINISTRATIVE CHAIN OF COMMAND
